3.Firmware/Verilog_Outlines/simulation/qsim/verilog_outlines.msim.vcd
$comment
	File created using the following command:
		vcd file verilog_outlines.msim.vcd -direction
$end
$date
	Sun Jul 03 18:50:22 2022
$end
$version
	ModelSim Version 10.1d
$end
$timescale
	1ps
$end
$scope module clk_div_vlg_vec_tst $end
$var reg 1 ! clk $end
$var wire 1 " fract_clk $end
$var wire 1 # read_clk $end
$var wire 1 $ slow_clk $end
$var wire 1 % vga_clk $end
$var wire 1 & sampler $end
$scope module i1 $end
$var wire 1 ' gnd $end
$var wire 1 ( vcc $end
$var wire 1 ) unknown $end
$var tri1 1 * devclrn $end
$var tri1 1 + devpor $end
$var tri1 1 , devoe $end
$var wire 1 - read_clk~output_o $end
$var wire 1 . fract_clk~output_o $end
$var wire 1 / slow_clk~output_o $end
$var wire 1 0 vga_clk~output_o $end
$var wire 1 1 clk~input_o $end
$var wire 1 2 Add2~57_sumout $end
$var wire 1 3 Add2~58 $end
$var wire 1 4 Add2~61_sumout $end
$var wire 1 5 Add2~62 $end
$var wire 1 6 Add2~65_sumout $end
$var wire 1 7 Add2~66 $end
$var wire 1 8 Add2~69_sumout $end
$var wire 1 9 Add2~70 $end
$var wire 1 : Add2~73_sumout $end
$var wire 1 ; Add2~74 $end
$var wire 1 < Add2~77_sumout $end
$var wire 1 = Add2~78 $end
$var wire 1 > Add2~121_sumout $end
$var wire 1 ? Add2~122 $end
$var wire 1 @ Add2~125_sumout $end
$var wire 1 A Add2~126 $end
$var wire 1 B Add2~101_sumout $end
$var wire 1 C Add2~102 $end
$var wire 1 D Add2~105_sumout $end
$var wire 1 E Add2~106 $end
$var wire 1 F Add2~109_sumout $end
$var wire 1 G Add2~110 $end
$var wire 1 H Add2~37_sumout $end
$var wire 1 I Add2~38 $end
$var wire 1 J Add2~41_sumout $end
$var wire 1 K Add2~42 $end
$var wire 1 L Add2~45_sumout $end
$var wire 1 M Add2~46 $end
$var wire 1 N Add2~49_sumout $end
$var wire 1 O Add2~50 $end
$var wire 1 P Add2~113_sumout $end
$var wire 1 Q Add2~114 $end
$var wire 1 R Add2~53_sumout $end
$var wire 1 S Add2~54 $end
$var wire 1 T Add2~117_sumout $end
$var wire 1 U Add2~118 $end
$var wire 1 V Add2~81_sumout $end
$var wire 1 W Add2~82 $end
$var wire 1 X Add2~85_sumout $end
$var wire 1 Y Add2~86 $end
$var wire 1 Z Add2~89_sumout $end
$var wire 1 [ Add2~90 $end
$var wire 1 \ Add2~17_sumout $end
$var wire 1 ] Add2~18 $end
$var wire 1 ^ Add2~21_sumout $end
$var wire 1 _ Add2~22 $end
$var wire 1 ` Add2~25_sumout $end
$var wire 1 a Add2~26 $end
$var wire 1 b Add2~29_sumout $end
$var wire 1 c Add2~30 $end
$var wire 1 d Add2~93_sumout $end
$var wire 1 e Add2~94 $end
$var wire 1 f Add2~33_sumout $end
$var wire 1 g Add2~34 $end
$var wire 1 h Add2~97_sumout $end
$var wire 1 i Add2~98 $end
$var wire 1 j Add2~1_sumout $end
$var wire 1 k Add2~2 $end
$var wire 1 l Add2~5_sumout $end
$var wire 1 m Add2~6 $end
$var wire 1 n Add2~9_sumout $end
$var wire 1 o Add2~10 $end
$var wire 1 p Add2~13_sumout $end
$var wire 1 q Equal2~0_combout $end
$var wire 1 r Equal2~6_combout $end
$var wire 1 s Equal2~1_combout $end
$var wire 1 t Equal2~4_combout $end
$var wire 1 u Equal2~5_combout $end
$var wire 1 v Equal2~2_combout $end
$var wire 1 w Equal2~3_combout $end
$var wire 1 x read_clk~reg0_q $end
$var wire 1 y Add1~57_sumout $end
$var wire 1 z Add1~58 $end
$var wire 1 { Add1~61_sumout $end
$var wire 1 | Add1~62 $end
$var wire 1 } Add1~65_sumout $end
$var wire 1 ~ Add1~66 $end
$var wire 1 !! Add1~69_sumout $end
$var wire 1 "! Add1~70 $end
$var wire 1 #! Add1~73_sumout $end
$var wire 1 $! Add1~74 $end
$var wire 1 %! Add1~77_sumout $end
$var wire 1 &! Add1~78 $end
$var wire 1 '! Add1~121_sumout $end
$var wire 1 (! Add1~122 $end
$var wire 1 )! Add1~125_sumout $end
$var wire 1 *! Add1~126 $end
$var wire 1 +! Add1~101_sumout $end
$var wire 1 ,! Add1~102 $end
$var wire 1 -! Add1~105_sumout $end
$var wire 1 .! Add1~106 $end
$var wire 1 /! Add1~109_sumout $end
$var wire 1 0! Add1~110 $end
$var wire 1 1! Add1~37_sumout $end
$var wire 1 2! Add1~38 $end
$var wire 1 3! Add1~41_sumout $end
$var wire 1 4! Add1~42 $end
$var wire 1 5! Add1~45_sumout $end
$var wire 1 6! Add1~46 $end
$var wire 1 7! Add1~49_sumout $end
$var wire 1 8! Add1~50 $end
$var wire 1 9! Add1~113_sumout $end
$var wire 1 :! Add1~114 $end
$var wire 1 ;! Add1~53_sumout $end
$var wire 1 <! Add1~54 $end
$var wire 1 =! Add1~117_sumout $end
$var wire 1 >! Add1~118 $end
$var wire 1 ?! Add1~81_sumout $end
$var wire 1 @! Add1~82 $end
$var wire 1 A! Add1~85_sumout $end
$var wire 1 B! Add1~86 $end
$var wire 1 C! Add1~89_sumout $end
$var wire 1 D! Add1~90 $end
$var wire 1 E! Add1~17_sumout $end
$var wire 1 F! Add1~18 $end
$var wire 1 G! Add1~21_sumout $end
$var wire 1 H! Add1~22 $end
$var wire 1 I! Add1~25_sumout $end
$var wire 1 J! Add1~26 $end
$var wire 1 K! Add1~29_sumout $end
$var wire 1 L! Add1~30 $end
$var wire 1 M! Add1~93_sumout $end
$var wire 1 N! Add1~94 $end
$var wire 1 O! Add1~33_sumout $end
$var wire 1 P! Add1~34 $end
$var wire 1 Q! Add1~97_sumout $end
$var wire 1 R! Add1~98 $end
$var wire 1 S! Add1~1_sumout $end
$var wire 1 T! Add1~2 $end
$var wire 1 U! Add1~5_sumout $end
$var wire 1 V! Add1~6 $end
$var wire 1 W! Add1~9_sumout $end
$var wire 1 X! Add1~10 $end
$var wire 1 Y! Add1~13_sumout $end
$var wire 1 Z! Equal1~0_combout $end
$var wire 1 [! Equal1~6_combout $end
$var wire 1 \! Equal1~1_combout $end
$var wire 1 ]! Equal1~4_combout $end
$var wire 1 ^! Equal1~5_combout $end
$var wire 1 _! Equal1~2_combout $end
$var wire 1 `! Equal1~3_combout $end
$var wire 1 a! fract_clk~reg0_q $end
$var wire 1 b! Add0~57_sumout $end
$var wire 1 c! Add0~58 $end
$var wire 1 d! Add0~61_sumout $end
$var wire 1 e! Add0~62 $end
$var wire 1 f! Add0~65_sumout $end
$var wire 1 g! Add0~66 $end
$var wire 1 h! Add0~69_sumout $end
$var wire 1 i! Add0~70 $end
$var wire 1 j! Add0~73_sumout $end
$var wire 1 k! Add0~74 $end
$var wire 1 l! Add0~77_sumout $end
$var wire 1 m! Add0~78 $end
$var wire 1 n! Add0~121_sumout $end
$var wire 1 o! Add0~122 $end
$var wire 1 p! Add0~125_sumout $end
$var wire 1 q! Add0~126 $end
$var wire 1 r! Add0~101_sumout $end
$var wire 1 s! Add0~102 $end
$var wire 1 t! Add0~105_sumout $end
$var wire 1 u! Add0~106 $end
$var wire 1 v! Add0~109_sumout $end
$var wire 1 w! Add0~110 $end
$var wire 1 x! Add0~37_sumout $end
$var wire 1 y! Add0~38 $end
$var wire 1 z! Add0~41_sumout $end
$var wire 1 {! Add0~42 $end
$var wire 1 |! Add0~45_sumout $end
$var wire 1 }! Add0~46 $end
$var wire 1 ~! Add0~49_sumout $end
$var wire 1 !" Add0~50 $end
$var wire 1 "" Add0~113_sumout $end
$var wire 1 #" Add0~114 $end
$var wire 1 $" Add0~53_sumout $end
$var wire 1 %" Add0~54 $end
$var wire 1 &" Add0~117_sumout $end
$var wire 1 '" Add0~118 $end
$var wire 1 (" Add0~81_sumout $end
$var wire 1 )" Add0~82 $end
$var wire 1 *" Add0~85_sumout $end
$var wire 1 +" Add0~86 $end
$var wire 1 ," Add0~89_sumout $end
$var wire 1 -" Add0~90 $end
$var wire 1 ." Add0~17_sumout $end
$var wire 1 /" Add0~18 $end
$var wire 1 0" Add0~21_sumout $end
$var wire 1 1" Add0~22 $end
$var wire 1 2" Add0~25_sumout $end
$var wire 1 3" Add0~26 $end
$var wire 1 4" Add0~29_sumout $end
$var wire 1 5" Add0~30 $end
$var wire 1 6" Add0~93_sumout $end
$var wire 1 7" Add0~94 $end
$var wire 1 8" Add0~33_sumout $end
$var wire 1 9" Add0~34 $end
$var wire 1 :" Add0~97_sumout $end
$var wire 1 ;" Add0~98 $end
$var wire 1 <" Add0~1_sumout $end
$var wire 1 =" Add0~2 $end
$var wire 1 >" Add0~5_sumout $end
$var wire 1 ?" Add0~6 $end
$var wire 1 @" Add0~9_sumout $end
$var wire 1 A" Add0~10 $end
$var wire 1 B" Add0~13_sumout $end
$var wire 1 C" Equal0~0_combout $end
$var wire 1 D" Equal0~1_combout $end
$var wire 1 E" Equal0~2_combout $end
$var wire 1 F" Equal0~5_combout $end
$var wire 1 G" Equal0~6_combout $end
$var wire 1 H" Equal0~3_combout $end
$var wire 1 I" Equal0~4_combout $end
$var wire 1 J" slow_clk~reg0_q $end
$var wire 1 K" vga_clk~0_combout $end
$var wire 1 L" vga_clk~reg0_q $end
$var wire 1 M" fract_timer [31] $end
$var wire 1 N" fract_timer [30] $end
$var wire 1 O" fract_timer [29] $end
$var wire 1 P" fract_timer [28] $end
$var wire 1 Q" fract_timer [27] $end
$var wire 1 R" fract_timer [26] $end
$var wire 1 S" fract_timer [25] $end
$var wire 1 T" fract_timer [24] $end
$var wire 1 U" fract_timer [23] $end
$var wire 1 V" fract_timer [22] $end
$var wire 1 W" fract_timer [21] $end
$var wire 1 X" fract_timer [20] $end
$var wire 1 Y" fract_timer [19] $end
$var wire 1 Z" fract_timer [18] $end
$var wire 1 [" fract_timer [17] $end
$var wire 1 \" fract_timer [16] $end
$var wire 1 ]" fract_timer [15] $end
$var wire 1 ^" fract_timer [14] $end
$var wire 1 _" fract_timer [13] $end
$var wire 1 `" fract_timer [12] $end
$var wire 1 a" fract_timer [11] $end
$var wire 1 b" fract_timer [10] $end
$var wire 1 c" fract_timer [9] $end
$var wire 1 d" fract_timer [8] $end
$var wire 1 e" fract_timer [7] $end
$var wire 1 f" fract_timer [6] $end
$var wire 1 g" fract_timer [5] $end
$var wire 1 h" fract_timer [4] $end
$var wire 1 i" fract_timer [3] $end
$var wire 1 j" fract_timer [2] $end
$var wire 1 k" fract_timer [1] $end
$var wire 1 l" fract_timer [0] $end
$var wire 1 m" slow_timer [31] $end
$var wire 1 n" slow_timer [30] $end
$var wire 1 o" slow_timer [29] $end
$var wire 1 p" slow_timer [28] $end
$var wire 1 q" slow_timer [27] $end
$var wire 1 r" slow_timer [26] $end
$var wire 1 s" slow_timer [25] $end
$var wire 1 t" slow_timer [24] $end
$var wire 1 u" slow_timer [23] $end
$var wire 1 v" slow_timer [22] $end
$var wire 1 w" slow_timer [21] $end
$var wire 1 x" slow_timer [20] $end
$var wire 1 y" slow_timer [19] $end
$var wire 1 z" slow_timer [18] $end
$var wire 1 {" slow_timer [17] $end
$var wire 1 |" slow_timer [16] $end
$var wire 1 }" slow_timer [15] $end
$var wire 1 ~" slow_timer [14] $end
$var wire 1 !# slow_timer [13] $end
$var wire 1 "# slow_timer [12] $end
$var wire 1 ## slow_timer [11] $end
$var wire 1 $# slow_timer [10] $end
$var wire 1 %# slow_timer [9] $end
$var wire 1 &# slow_timer [8] $end
$var wire 1 '# slow_timer [7] $end
$var wire 1 (# slow_timer [6] $end
$var wire 1 )# slow_timer [5] $end
$var wire 1 *# slow_timer [4] $end
$var wire 1 +# slow_timer [3] $end
$var wire 1 ,# slow_timer [2] $end
$var wire 1 -# slow_timer [1] $end
$var wire 1 .# slow_timer [0] $end
$var wire 1 /# read_timer [31] $end
$var wire 1 0# read_timer [30] $end
$var wire 1 1# read_timer [29] $end
$var wire 1 2# read_timer [28] $end
$var wire 1 3# read_timer [27] $end
$var wire 1 4# read_timer [26] $end
$var wire 1 5# read_timer [25] $end
$var wire 1 6# read_timer [24] $end
$var wire 1 7# read_timer [23] $end
$var wire 1 8# read_timer [22] $end
$var wire 1 9# read_timer [21] $end
$var wire 1 :# read_timer [20] $end
$var wire 1 ;# read_timer [19] $end
$var wire 1 <# read_timer [18] $end
$var wire 1 =# read_timer [17] $end
$var wire 1 ># read_timer [16] $end
$var wire 1 ?# read_timer [15] $end
$var wire 1 @# read_timer [14] $end
$var wire 1 A# read_timer [13] $end
$var wire 1 B# read_timer [12] $end
$var wire 1 C# read_timer [11] $end
$var wire 1 D# read_timer [10] $end
$var wire 1 E# read_timer [9] $end
$var wire 1 F# read_timer [8] $end
$var wire 1 G# read_timer [7] $end
$var wire 1 H# read_timer [6] $end
$var wire 1 I# read_timer [5] $end
$var wire 1 J# read_timer [4] $end
$var wire 1 K# read_timer [3] $end
$var wire 1 L# read_timer [2] $end
$var wire 1 M# read_timer [1] $end
$var wire 1 N# read_timer [0] $end
$upscope $end
$upscope $end
$enddefinitions $end
#0
$dumpvars
0!
0W
0X
0Y
0Z
0[
0\
0]
0^
0_
0`
0a
0b
0c
0d
0e
0f
0g
0h
0i
0j
0k
0l
0m
0n
0o
0p
0q
0r
0s
0t
0u
0v
0w
0x
1y
0z
0{
0|
0}
0~
0!!
0"!
0#!
0$!
0%!
0&!
0'!
0(!
0)!
0*!
0+!
0,!
0-!
0.!
0/!
00!
01!
02!
03!
04!
05!
06!
07!
08!
09!
0:!
0;!
0<!
0=!
0>!
0?!
0@!
0A!
0B!
0C!
0D!
0E!
0F!
0G!
0H!
0I!
0J!
0K!
0L!
0M!
0N!
0O!
0P!
0Q!
0R!
0S!
0T!
0U!
0V!
0W!
0X!
0Y!
0Z!
0[!
0\!
0]!
0^!
0_!
0`!
0a!
1b!
0c!
0d!
0e!
0f!
0g!
0h!
0i!
0j!
0k!
0l!
0m!
0n!
0o!
0p!
0q!
0r!
0s!
0t!
0u!
0v!
0w!
0x!
0y!
0z!
0{!
0|!
0}!
0~!
0!"
0""
0#"
0$"
0%"
0&"
0'"
0("
0)"
0*"
0+"
0,"
0-"
0."
0/"
00"
01"
02"
03"
04"
05"
06"
07"
08"
09"
0:"
0;"
0<"
0="
0>"
0?"
0@"
0A"
0B"
0C"
0D"
0E"
0F"
0G"
0H"
0I"
0J"
1K"
0L"
0l"
0k"
0j"
0i"
0h"
0g"
0f"
0e"
0d"
0c"
0b"
0a"
0`"
0_"
0^"
0]"
0\"
0["
0Z"
0Y"
0X"
0W"
0V"
0U"
0T"
0S"
0R"
0Q"
0P"
0O"
0N"
0M"
0.#
0-#
0,#
0+#
0*#
0)#
0(#
0'#
0&#
0%#
0$#
0##
0"#
0!#
0~"
0}"
0|"
0{"
0z"
0y"
0x"
0w"
0v"
0u"
0t"
0s"
0r"
0q"
0p"
0o"
0n"
0m"
0N#
0M#
0L#
0K#
0J#
0I#
0H#
0G#
0F#
0E#
0D#
0C#
0B#
0A#
0@#
0?#
0>#
0=#
0<#
0;#
0:#
09#
08#
07#
06#
05#
04#
03#
02#
01#
00#
0/#
0"
0#
0$
0%
x&
0'
1(
x)
1*
1+
1,
0-
0.
0/
00
01
12
03
04
05
06
07
08
09
0:
0;
0<
0=
0>
0?
0@
0A
0B
0C
0D
0E
0F
0G
0H
0I
0J
0K
0L
0M
0N
0O
0P
0Q
0R
0S
0T
0U
0V
$end
#5000
1!
11
0&
1.#
1l"
1N#
1L"
1c!
0b!
1z
0y
13
02
0K"
10
1%
1d!
1{
14
1C"
1q
0C"
0q
#10000
0!
01
1&
#15000
1!
11
0&
1-#
0.#
1k"
0l"
1M#
0N#
0L"
1e!
0d!
0c!
1b!
1|
0{
0z
1y
15
04
03
12
1K"
00
0%
1f!
0e!
1d!
1}
0|
1{
16
05
14
0f!
0}
06
#20000
0!
01
1&
#25000
1!
11
0&
1.#
1l"
1N#
1L"
1c!
0b!
1z
0y
13
02
0K"
10
1%
1e!
0d!
1|
0{
15
04
1f!
1}
16
1C"
1q
0C"
0q
#30000
0!
01
1&
#35000
1!
11
0&
1,#
0-#
0.#
1j"
0k"
0l"
1L#
0M#
0N#
0L"
1g!
0f!
0e!
1d!
0c!
1b!
1~
0}
0|
1{
0z
1y
17
06
05
14
03
12
1K"
00
0%
1h!
0g!
1f!
0d!
1!!
0~
1}
0{
18
07
16
04
0h!
0!!
08
#40000
0!
01
1&
#45000
1!
11
0&
1.#
1l"
1N#
1L"
1c!
0b!
1z
0y
13
02
0K"
10
1%
1d!
1{
14
#50000
0!
01
1&
#55000
1!
11
0&
1-#
0.#
1k"
0l"
1M#
0N#
0L"
1e!
0d!
0c!
1b!
1|
0{
0z
1y
15
04
03
12
1K"
00
0%
1g!
0f!
0e!
1d!
1~
0}
0|
1{
17
06
05
14
1h!
0g!
1f!
1!!
0~
1}
18
07
16
0h!
0!!
08
#60000
0!
01
1&
#65000
1!
11
0&
1.#
1l"
1N#
1L"
1c!
0b!
1z
0y
13
02
0K"
10
1%
1e!
0d!
1|
0{
15
04
1g!
0f!
1~
0}
17
06
1h!
1!!
18
1C"
1q
0C"
0q
#70000
0!
01
1&
#75000
1!
11
0&
1+#
0,#
0-#
0.#
1i"
0j"
0k"
0l"
1K#
0L#
0M#
0N#
0L"
1i!
0h!
0g!
1f!
0e!
1d!
0c!
1b!
1"!
0!!
0~
1}
0|
1{
0z
1y
19
08
07
16
05
14
03
12
1K"
00
0%
1j!
0i!
1h!
0f!
0d!
1#!
0"!
1!!
0}
0{
1:
09
18
06
04
0j!
0#!
0:
#80000
0!
01
1&
#85000
1!
11
0&
1.#
1l"
1N#
1L"
1c!
0b!
1z
0y
13
02
0K"
10
1%
1d!
1{
14
#90000
0!
01
1&
#95000
1!
11
0&
1-#
0.#
1k"
0l"
1M#
0N#
0L"
1e!
0d!
0c!
1b!
1|
0{
0z
1y
15
04
03
12
1K"
00
0%
1f!
0e!
1d!
1}
0|
1{
16
05
14
0f!
0}
06
#100000
0!
01
1&
#105000
1!
11
0&
1.#
1l"
1N#
1L"
1c!
0b!
1z
0y
13
02
0K"
10
1%
1e!
0d!
1|
0{
15
04
1f!
1}
16
#110000
0!
01
1&
#115000
1!
11
0&
1,#
0-#
0.#
1j"
0k"
0l"
1L#
0M#
0N#
0L"
1g!
0f!
0e!
1d!
0c!
1b!
1~
0}
0|
1{
0z
1y
17
06
05
14
03
12
1K"
00
0%
1i!
0h!
0g!
1f!
0d!
1"!
0!!
0~
1}
0{
19
08
07
16
04
1j!
0i!
1h!
1#!
0"!
1!!
1:
09
18
0j!
0#!
0:
#120000
0!
01
1&
#125000
1!
11
0&
1.#
1l"
1N#
1L"
1c!
0b!
1z
0y
13
02
0K"
10
1%
1d!
1{
14
#130000
0!
01
1&
#135000
1!
11
0&
1-#
0.#
1k"
0l"
1M#
0N#
0L"
1e!
0d!
0c!
1b!
1|
0{
0z
1y
15
04
03
12
1K"
00
0%
1g!
0f!
0e!
1d!
1~
0}
0|
1{
17
06
05
14
1i!
0h!
0g!
1f!
1"!
0!!
0~
1}
19
08
07
16
1j!
0i!
1h!
1#!
0"!
1!!
1:
09
18
0j!
0#!
0:
#140000
0!
01
1&
#145000
1!
11
0&
1.#
1l"
1N#
1L"
1c!
0b!
1z
0y
13
02
0K"
10
1%
1e!
0d!
1|
0{
15
04
1g!
0f!
1~
0}
17
06
1i!
0h!
1"!
0!!
19
08
1j!
1#!
1:
1C"
1q
0C"
0q
#150000
0!
01
1&
#155000
1!
11
0&
1*#
0+#
0,#
0-#
0.#
1h"
0i"
0j"
0k"
0l"
1J#
0K#
0L#
0M#
0N#
0L"
1k!
0j!
0i!
1h!
0g!
1f!
0e!
1d!
0c!
1b!
1$!
0#!
0"!
1!!
0~
1}
0|
1{
0z
1y
1;
0:
09
18
07
16
05
14
03
12
1K"
00
0%
1l!
0k!
1j!
0h!
0f!
0d!
1%!
0$!
1#!
0!!
0}
0{
1<
0;
1:
08
06
04
0l!
0%!
0<
#160000
0!
01
1&
#165000
1!
11
0&
1.#
1l"
1N#
1L"
1c!
0b!
1z
0y
13
02
0K"
10
1%
1d!
1{
14
#170000
0!
01
1&
#175000
1!
11
0&
1-#
0.#
1k"
0l"
1M#
0N#
0L"
1e!
0d!
0c!
1b!
1|
0{
0z
1y
15
04
03
12
1K"
00
0%
1f!
0e!
1d!
1}
0|
1{
16
05
14
0f!
0}
06
#180000
0!
01
1&
#185000
1!
11
0&
1.#
1l"
1N#
1L"
1c!
0b!
1z
0y
13
02
0K"
10
1%
1e!
0d!
1|
0{
15
04
1f!
1}
16
#190000
0!
01
1&
#195000
1!
11
0&
1,#
0-#
0.#
1j"
0k"
0l"
1L#
0M#
0N#
0L"
1g!
0f!
0e!
1d!
0c!
1b!
1~
0}
0|
1{
0z
1y
17
06
05
14
03
12
1K"
00
0%
1h!
0g!
1f!
0d!
1!!
0~
1}
0{
18
07
16
04
0h!
0!!
08
#200000
0!
01
1&
#205000
1!
11
0&
1.#
1l"
1N#
1L"
1c!
0b!
1z
0y
13
02
0K"
10
1%
1d!
1{
14
#210000
0!
01
1&
#215000
1!
11
0&
1-#
0.#
1k"
0l"
1M#
0N#
0L"
1e!
0d!
0c!
1b!
1|
0{
0z
1y
15
04
03
12
1K"
00
0%
1g!
0f!
0e!
1d!
1~
0}
0|
1{
17
06
05
14
1h!
0g!
1f!
1!!
0~
1}
18
07
16
0h!
0!!
08
#220000
0!
01
1&
#225000
1!
11
0&
1.#
1l"
1N#
1L"
1c!
0b!
1z
0y
13
02
0K"
10
1%
1e!
0d!
1|
0{
15
04
1g!
0f!
1~
0}
17
06
1h!
1!!
18
#230000
0!
01
1&
#235000
1!
11
0&
1+#
0,#
0-#
0.#
1i"
0j"
0k"
0l"
1K#
0L#
0M#
0N#
0L"
1i!
0h!
0g!
1f!
0e!
1d!
0c!
1b!
1"!
0!!
0~
1}
0|
1{
0z
1y
19
08
07
16
05
14
03
12
1K"
00
0%
1k!
0j!
0i!
1h!
0f!
0d!
1$!
0#!
0"!
1!!
0}
0{
1;
0:
09
18
06
04
1l!
0k!
1j!
1%!
0$!
1#!
1<
0;
1:
0l!
0%!
0<
#240000
0!
01
1&
#245000
1!
11
0&
1.#
1l"
1N#
1L"
1c!
0b!
1z
0y
13
02
0K"
10
1%
1d!
1{
14
#250000
0!
01
1&
#255000
1!
11
0&
1-#
0.#
1k"
0l"
1M#
0N#
0L"
1e!
0d!
0c!
1b!
1|
0{
0z
1y
15
04
03
12
1K"
00
0%
1f!
0e!
1d!
1}
0|
1{
16
05
14
0f!
0}
06
#260000
0!
01
1&
#265000
1!
11
0&
1.#
1l"
1N#
1L"
1c!
0b!
1z
0y
13
02
0K"
10
1%
1e!
0d!
1|
0{
15
04
1f!
1}
16
#270000
0!
01
1&
#275000
1!
11
0&
1,#
0-#
0.#
1j"
0k"
0l"
1L#
0M#
0N#
0L"
1g!
0f!
0e!
1d!
0c!
1b!
1~
0}
0|
1{
0z
1y
17
06
05
14
03
12
1K"
00
0%
1i!
0h!
0g!
1f!
0d!
1"!
0!!
0~
1}
0{
19
08
07
16
04
1k!
0j!
0i!
1h!
1$!
0#!
0"!
1!!
1;
0:
09
18
1l!
0k!
1j!
1%!
0$!
1#!
1<
0;
1:
0l!
0%!
0<
#280000
0!
01
1&
#285000
1!
11
0&
1.#
1l"
1N#
1L"
1c!
0b!
1z
0y
13
02
0K"
10
1%
1d!
1{
14
#290000
0!
01
1&
#295000
1!
11
0&
1-#
0.#
1k"
0l"
1M#
0N#
0L"
1e!
0d!
0c!
1b!
1|
0{
0z
1y
15
04
03
12
1K"
00
0%
1g!
0f!
0e!
1d!
1~
0}
0|
1{
17
06
05
14
1i!
0h!
0g!
1f!
1"!
0!!
0~
1}
19
08
07
16
1k!
0j!
0i!
1h!
1$!
0#!
0"!
1!!
1;
0:
09
18
1l!
0k!
1j!
1%!
0$!
1#!
1<
0;
1:
0l!
0%!
0<
#300000
0!
01
1&
#305000
1!
11
0&
1.#
1l"
1N#
1L"
1c!
0b!
1z
0y
13
02
0K"
10
1%
1e!
0d!
1|
0{
15
04
1g!
0f!
1~
0}
17
06
1i!
0h!
1"!
0!!
19
08
1k!
0j!
1$!
0#!
1;
0:
1l!
1%!
1<
1C"
1q
0C"
1Z!
0q
#310000
0!
01
1&
#315000
1!
11
0&
1)#
0*#
0+#
0,#
0-#
0.#
1g"
0h"
0i"
0j"
0k"
0l"
1I#
0J#
0K#
0L#
0M#
0N#
0L"
1m!
0l!
0k!
1j!
0i!
1h!
0g!
1f!
0e!
1d!
0c!
1b!
1&!
0%!
0$!
1#!
0"!
1!!
0~
1}
0|
1{
0z
1y
1=
0<
0;
1:
09
18
07
16
05
14
03
12
1K"
00
0%
1n!
0m!
1l!
0j!
0h!
0f!
0d!
1'!
0&!
1%!
0#!
0!!
0}
0{
1>
0=
1<
0:
08
06
04
0Z!
0n!
0'!
0>
#320000
0!
01
1&
#325000
1!
11
0&
1.#
1l"
1N#
1L"
1c!
0b!
1z
0y
13
02
0K"
10
1%
1d!
1{
14
1Z!
0Z!
#330000
0!
01
1&
#335000
1!
11
0&
1-#
0.#
1k"
0l"
1M#
0N#
0L"
1e!
0d!
0c!
1b!
1|
0{
0z
1y
15
04
03
12
1K"
00
0%
1f!
0e!
1d!
1}
0|
1{
16
05
14
0f!
0}
06
#340000
0!
01
1&
#345000
1!
11
0&
1.#
1l"
1N#
1L"
1c!
0b!
1z
0y
13
02
0K"
10
1%
1e!
0d!
1|
0{
15
04
1f!
1}
16
1Z!
0Z!
#350000
0!
01
1&
#355000
1!
11
0&
1,#
0-#
0.#
1j"
0k"
0l"
1L#
0M#
0N#
0L"
1g!
0f!
0e!
1d!
0c!
1b!
1~
0}
0|
1{
0z
1y
17
06
05
14
03
12
1K"
00
0%
1h!
0g!
1f!
0d!
1!!
0~
1}
0{
18
07
16
04
0h!
0!!
08
#360000
0!
01
1&
#365000
1!
11
0&
1.#
1l"
1N#
1L"
1c!
0b!
1z
0y
13
02
0K"
10
1%
1d!
1{
14
#370000
0!
01
1&
#375000
1!
11
0&
1-#
0.#
1k"
0l"
1M#
0N#
0L"
1e!
0d!
0c!
1b!
1|
0{
0z
1y
15
04
03
12
1K"
00
0%
1g!
0f!
0e!
1d!
1~
0}
0|
1{
17
06
05
14
1h!
0g!
1f!
1!!
0~
1}
18
07
16
0h!
0!!
08
#380000
0!
01
1&
#385000
1!
11
0&
1.#
1l"
1N#
1L"
1c!
0b!
1z
0y
13
02
0K"
10
1%
1e!
0d!
1|
0{
15
04
1g!
0f!
1~
0}
17
06
1h!
1!!
18
1Z!
0Z!
#390000
0!
01
1&
#395000
1!
11
0&
1+#
0,#
0-#
0.#
1i"
0j"
0k"
0l"
1K#
0L#
0M#
0N#
0L"
1i!
0h!
0g!
1f!
0e!
1d!
0c!
1b!
1"!
0!!
0~
1}
0|
1{
0z
1y
19
08
07
16
05
14
03
12
1K"
00
0%
1j!
0i!
1h!
0f!
0d!
1#!
0"!
1!!
0}
0{
1:
09
18
06
04
0j!
0#!
0:
#400000
0!
01
1&
#405000
1!
11
0&
1.#
1l"
1N#
1L"
1c!
0b!
1z
0y
13
02
0K"
10
1%
1d!
1{
14
#410000
0!
01
1&
#415000
1!
11
0&
1-#
0.#
1k"
0l"
1M#
0N#
0L"
1e!
0d!
0c!
1b!
1|
0{
0z
1y
15
04
03
12
1K"
00
0%
1f!
0e!
1d!
1}
0|
1{
16
05
14
0f!
0}
06
#420000
0!
01
1&
#425000
1!
11
0&
1.#
1l"
1N#
1L"
1c!
0b!
1z
0y
13
02
0K"
10
1%
1e!
0d!
1|
0{
15
04
1f!
1}
16
#430000
0!
01
1&
#435000
1!
11
0&
1,#
0-#
0.#
1j"
0k"
0l"
1L#
0M#
0N#
0L"
1g!
0f!
0e!
1d!
0c!
1b!
1~
0}
0|
1{
0z
1y
17
06
05
14
03
12
1K"
00
0%
1i!
0h!
0g!
1f!
0d!
1"!
0!!
0~
1}
0{
19
08
07
16
04
1j!
0i!
1h!
1#!
0"!
1!!
1:
09
18
0j!
0#!
0:
#440000
0!
01
1&
#445000
1!
11
0&
1.#
1l"
1N#
1L"
1c!
0b!
1z
0y
13
02
0K"
10
1%
1d!
1{
14
#450000
0!
01
1&
#455000
1!
11
0&
1-#
0.#
1k"
0l"
1M#
0N#
0L"
1e!
0d!
0c!
1b!
1|
0{
0z
1y
15
04
03
12
1K"
00
0%
1g!
0f!
0e!
1d!
1~
0}
0|
1{
17
06
05
14
1i!
0h!
0g!
1f!
1"!
0!!
0~
1}
19
08
07
16
1j!
0i!
1h!
1#!
0"!
1!!
1:
09
18
0j!
0#!
0:
#460000
0!
01
1&
#465000
1!
11
0&
1.#
1l"
1N#
1L"
1c!
0b!
1z
0y
13
02
0K"
10
1%
1e!
0d!
1|
0{
15
04
1g!
0f!
1~
0}
17
06
1i!
0h!
1"!
0!!
19
08
1j!
1#!
1:
1Z!
0Z!
#470000
0!
01
1&
#475000
1!
11
0&
1*#
0+#
0,#
0-#
0.#
1h"
0i"
0j"
0k"
0l"
1J#
0K#
0L#
0M#
0N#
0L"
1k!
0j!
0i!
1h!
0g!
1f!
0e!
1d!
0c!
1b!
1$!
0#!
0"!
1!!
0~
1}
0|
1{
0z
1y
1;
0:
09
18
07
16
05
14
03
12
1K"
00
0%
1m!
0l!
0k!
1j!
0h!
0f!
0d!
1&!
0%!
0$!
1#!
0!!
0}
0{
1=
0<
0;
1:
08
06
04
1n!
0m!
1l!
1'!
0&!
1%!
1>
0=
1<
0n!
0'!
0>
#480000
0!
01
1&
#485000
1!
11
0&
1.#
1l"
1N#
1L"
1c!
0b!
1z
0y
13
02
0K"
10
1%
1d!
1{
14
#490000
0!
01
1&
