3.Firmware/Verilog_Outlines/simulation/qsim/verilog_outlines.msim.vcd
$comment
	File created using the following command:
		vcd file verilog_outlines.msim.vcd -direction
$end
$date
	Sat Jul 02 13:28:43 2022
$end
$version
	ModelSim Version 10.1d
$end
$timescale
	1ps
$end
$scope module clk_div_vlg_vec_tst $end
$var reg 1 ! clk $end
$var wire 1 " fract_clk $end
$var wire 1 # read_clk $end
$var wire 1 $ sampler $end
$scope module i1 $end
$var wire 1 % gnd $end
$var wire 1 & vcc $end
$var wire 1 ' unknown $end
$var tri1 1 ( devclrn $end
$var tri1 1 ) devpor $end
$var tri1 1 * devoe $end
$var wire 1 + read_clk~output_o $end
$var wire 1 , fract_clk~output_o $end
$var wire 1 - clk~input_o $end
$var wire 1 . Add0~57_sumout $end
$var wire 1 / Add0~58 $end
$var wire 1 0 Add0~61_sumout $end
$var wire 1 1 Add0~62 $end
$var wire 1 2 Add0~65_sumout $end
$var wire 1 3 Add0~66 $end
$var wire 1 4 Add0~69_sumout $end
$var wire 1 5 Add0~70 $end
$var wire 1 6 Add0~73_sumout $end
$var wire 1 7 Add0~74 $end
$var wire 1 8 Add0~77_sumout $end
$var wire 1 9 Add0~78 $end
$var wire 1 : Add0~121_sumout $end
$var wire 1 ; Add0~122 $end
$var wire 1 < Add0~125_sumout $end
$var wire 1 = Add0~126 $end
$var wire 1 > Add0~101_sumout $end
$var wire 1 ? Add0~102 $end
$var wire 1 @ Add0~105_sumout $end
$var wire 1 A Add0~106 $end
$var wire 1 B Add0~109_sumout $end
$var wire 1 C Add0~110 $end
$var wire 1 D Add0~37_sumout $end
$var wire 1 E Add0~38 $end
$var wire 1 F Add0~41_sumout $end
$var wire 1 G Add0~42 $end
$var wire 1 H Add0~45_sumout $end
$var wire 1 I Add0~46 $end
$var wire 1 J Add0~49_sumout $end
$var wire 1 K Add0~50 $end
$var wire 1 L Add0~113_sumout $end
$var wire 1 M Add0~114 $end
$var wire 1 N Add0~53_sumout $end
$var wire 1 O Add0~54 $end
$var wire 1 P Add0~117_sumout $end
$var wire 1 Q Add0~118 $end
$var wire 1 R Add0~81_sumout $end
$var wire 1 S Add0~82 $end
$var wire 1 T Add0~85_sumout $end
$var wire 1 U Add0~86 $end
$var wire 1 V Add0~89_sumout $end
$var wire 1 W Add0~90 $end
$var wire 1 X Add0~17_sumout $end
$var wire 1 Y Add0~18 $end
$var wire 1 Z Add0~21_sumout $end
$var wire 1 [ Add0~22 $end
$var wire 1 \ Add0~25_sumout $end
$var wire 1 ] Add0~26 $end
$var wire 1 ^ Add0~29_sumout $end
$var wire 1 _ Add0~30 $end
$var wire 1 ` Add0~93_sumout $end
$var wire 1 a Add0~94 $end
$var wire 1 b Add0~33_sumout $end
$var wire 1 c Add0~34 $end
$var wire 1 d Add0~97_sumout $end
$var wire 1 e Add0~98 $end
$var wire 1 f Add0~1_sumout $end
$var wire 1 g Add0~2 $end
$var wire 1 h Add0~5_sumout $end
$var wire 1 i Add0~6 $end
$var wire 1 j Add0~9_sumout $end
$var wire 1 k Add0~10 $end
$var wire 1 l Add0~13_sumout $end
$var wire 1 m Equal0~0_combout $end
$var wire 1 n Equal0~6_combout $end
$var wire 1 o Equal0~1_combout $end
$var wire 1 p Equal0~4_combout $end
$var wire 1 q Equal0~5_combout $end
$var wire 1 r Equal0~2_combout $end
$var wire 1 s Equal0~3_combout $end
$var wire 1 t read_clk~reg0_q $end
$var wire 1 u Add1~57_sumout $end
$var wire 1 v Add1~58 $end
$var wire 1 w Add1~61_sumout $end
$var wire 1 x Add1~62 $end
$var wire 1 y Add1~65_sumout $end
$var wire 1 z Add1~66 $end
$var wire 1 { Add1~69_sumout $end
$var wire 1 | Add1~70 $end
$var wire 1 } Add1~73_sumout $end
$var wire 1 ~ Add1~74 $end
$var wire 1 !! Add1~77_sumout $end
$var wire 1 "! Add1~78 $end
$var wire 1 #! Add1~121_sumout $end
$var wire 1 $! Add1~122 $end
$var wire 1 %! Add1~125_sumout $end
$var wire 1 &! Add1~126 $end
$var wire 1 '! Add1~101_sumout $end
$var wire 1 (! Add1~102 $end
$var wire 1 )! Add1~105_sumout $end
$var wire 1 *! Add1~106 $end
$var wire 1 +! Add1~109_sumout $end
$var wire 1 ,! Add1~110 $end
$var wire 1 -! Add1~37_sumout $end
$var wire 1 .! Add1~38 $end
$var wire 1 /! Add1~41_sumout $end
$var wire 1 0! Add1~42 $end
$var wire 1 1! Add1~45_sumout $end
$var wire 1 2! Add1~46 $end
$var wire 1 3! Add1~49_sumout $end
$var wire 1 4! Add1~50 $end
$var wire 1 5! Add1~113_sumout $end
$var wire 1 6! Add1~114 $end
$var wire 1 7! Add1~53_sumout $end
$var wire 1 8! Add1~54 $end
$var wire 1 9! Add1~117_sumout $end
$var wire 1 :! Add1~118 $end
$var wire 1 ;! Add1~81_sumout $end
$var wire 1 <! Add1~82 $end
$var wire 1 =! Add1~85_sumout $end
$var wire 1 >! Add1~86 $end
$var wire 1 ?! Add1~89_sumout $end
$var wire 1 @! Add1~90 $end
$var wire 1 A! Add1~17_sumout $end
$var wire 1 B! Add1~18 $end
$var wire 1 C! Add1~21_sumout $end
$var wire 1 D! Add1~22 $end
$var wire 1 E! Add1~25_sumout $end
$var wire 1 F! Add1~26 $end
$var wire 1 G! Add1~29_sumout $end
$var wire 1 H! Add1~30 $end
$var wire 1 I! Add1~93_sumout $end
$var wire 1 J! Add1~94 $end
$var wire 1 K! Add1~33_sumout $end
$var wire 1 L! Add1~34 $end
$var wire 1 M! Add1~97_sumout $end
$var wire 1 N! Add1~98 $end
$var wire 1 O! Add1~1_sumout $end
$var wire 1 P! Add1~2 $end
$var wire 1 Q! Add1~5_sumout $end
$var wire 1 R! Add1~6 $end
$var wire 1 S! Add1~9_sumout $end
$var wire 1 T! Add1~10 $end
$var wire 1 U! Add1~13_sumout $end
$var wire 1 V! Equal1~0_combout $end
$var wire 1 W! Equal1~1_combout $end
$var wire 1 X! Equal1~2_combout $end
$var wire 1 Y! Equal1~5_combout $end
$var wire 1 Z! Equal1~6_combout $end
$var wire 1 [! Equal1~3_combout $end
$var wire 1 \! Equal1~4_combout $end
$var wire 1 ]! fract_clk~reg0_q $end
$var wire 1 ^! read_timer [31] $end
$var wire 1 _! read_timer [30] $end
$var wire 1 `! read_timer [29] $end
$var wire 1 a! read_timer [28] $end
$var wire 1 b! read_timer [27] $end
$var wire 1 c! read_timer [26] $end
$var wire 1 d! read_timer [25] $end
$var wire 1 e! read_timer [24] $end
$var wire 1 f! read_timer [23] $end
$var wire 1 g! read_timer [22] $end
$var wire 1 h! read_timer [21] $end
$var wire 1 i! read_timer [20] $end
$var wire 1 j! read_timer [19] $end
$var wire 1 k! read_timer [18] $end
$var wire 1 l! read_timer [17] $end
$var wire 1 m! read_timer [16] $end
$var wire 1 n! read_timer [15] $end
$var wire 1 o! read_timer [14] $end
$var wire 1 p! read_timer [13] $end
$var wire 1 q! read_timer [12] $end
$var wire 1 r! read_timer [11] $end
$var wire 1 s! read_timer [10] $end
$var wire 1 t! read_timer [9] $end
$var wire 1 u! read_timer [8] $end
$var wire 1 v! read_timer [7] $end
$var wire 1 w! read_timer [6] $end
$var wire 1 x! read_timer [5] $end
$var wire 1 y! read_timer [4] $end
$var wire 1 z! read_timer [3] $end
$var wire 1 {! read_timer [2] $end
$var wire 1 |! read_timer [1] $end
$var wire 1 }! read_timer [0] $end
$var wire 1 ~! fract_timer [31] $end
$var wire 1 !" fract_timer [30] $end
$var wire 1 "" fract_timer [29] $end
$var wire 1 #" fract_timer [28] $end
$var wire 1 $" fract_timer [27] $end
$var wire 1 %" fract_timer [26] $end
$var wire 1 &" fract_timer [25] $end
$var wire 1 '" fract_timer [24] $end
$var wire 1 (" fract_timer [23] $end
$var wire 1 )" fract_timer [22] $end
$var wire 1 *" fract_timer [21] $end
$var wire 1 +" fract_timer [20] $end
$var wire 1 ," fract_timer [19] $end
$var wire 1 -" fract_timer [18] $end
$var wire 1 ." fract_timer [17] $end
$var wire 1 /" fract_timer [16] $end
$var wire 1 0" fract_timer [15] $end
$var wire 1 1" fract_timer [14] $end
$var wire 1 2" fract_timer [13] $end
$var wire 1 3" fract_timer [12] $end
$var wire 1 4" fract_timer [11] $end
$var wire 1 5" fract_timer [10] $end
$var wire 1 6" fract_timer [9] $end
$var wire 1 7" fract_timer [8] $end
$var wire 1 8" fract_timer [7] $end
$var wire 1 9" fract_timer [6] $end
$var wire 1 :" fract_timer [5] $end
$var wire 1 ;" fract_timer [4] $end
$var wire 1 <" fract_timer [3] $end
$var wire 1 =" fract_timer [2] $end
$var wire 1 >" fract_timer [1] $end
$var wire 1 ?" fract_timer [0] $end
$upscope $end
$upscope $end
$enddefinitions $end
#0
$dumpvars
0!
0"
0#
x$
0%
1&
x'
1(
1)
1*
0+
0,
0-
1.
0/
00
01
02
03
04
05
06
07
08
09
0:
0;
0<
0=
0>
0?
0@
0A
0B
0C
0D
0E
0F
0G
0H
0I
0J
0K
0L
0M
0N
0O
0P
0Q
0R
0S
0T
0U
0V
0W
0X
0Y
0Z
0[
0\
0]
0^
0_
0`
0a
0b
0c
0d
0e
0f
0g
0h
0i
0j
0k
0l
0m
1n
0o
1p
1q
1r
0s
0t
1u
0v
0w
0x
0y
0z
0{
0|
0}
0~
0!!
0"!
0#!
0$!
0%!
0&!
0'!
0(!
0)!
0*!
0+!
0,!
0-!
0.!
0/!
00!
01!
02!
03!
04!
05!
06!
07!
08!
09!
0:!
0;!
0<!
0=!
0>!
0?!
0@!
0A!
0B!
0C!
0D!
0E!
0F!
0G!
0H!
0I!
0J!
0K!
0L!
0M!
0N!
0O!
0P!
0Q!
0R!
0S!
0T!
0U!
0V!
0W!
0X!
1Y!
1Z!
1[!
0\!
0]!
0}!
0|!
0{!
0z!
0y!
0x!
0w!
0v!
0u!
0t!
0s!
0r!
0q!
0p!
0o!
0n!
0m!
0l!
0k!
0j!
0i!
0h!
0g!
0f!
0e!
0d!
0c!
0b!
0a!
0`!
0_!
0^!
0?"
0>"
0="
0<"
0;"
0:"
09"
08"
07"
06"
05"
04"
03"
02"
01"
00"
0/"
0."
0-"
0,"
0+"
0*"
0)"
0("
0'"
0&"
0%"
0$"
0#"
0""
0!"
0~!
$end
#5000
1!
1-
0$
1?"
1}!
1v
0u
1/
0.
1w
10
#10000
0!
0-
1$
#15000
1!
1-
0$
1>"
0?"
1|!
0}!
1x
0w
0v
1u
11
00
0/
1.
1y
0x
1w
12
01
10
0y
02
#20000
0!
0-
1$
#25000
1!
1-
0$
1?"
1}!
1v
0u
1/
0.
1x
0w
11
00
1y
12
#30000
0!
0-
1$
#35000
1!
1-
0$
1="
0>"
0?"
1{!
0|!
0}!
1z
0y
0x
1w
0v
1u
13
02
01
10
0/
1.
1{
0z
1y
0w
14
03
12
00
0{
04
1V!
1W!
1X!
1\!
#40000
0!
0-
1$
#45000
1!
1-
0$
0="
1}!
1]!
0y
1/
0.
1,
1"
10
0V!
0W!
0X!
0\!
#50000
0!
0-
1$
#55000
1!
1-
0$
1?"
1|!
0}!
0]!
1v
0u
11
00
0/
1.
0,
0"
1w
13
02
01
10
14
03
12
04
#60000
0!
0-
1$
#65000
1!
1-
0$
1>"
0?"
1}!
1x
0w
0v
1u
1/
0.
1y
0x
1w
11
00
0y
13
02
14
#70000
0!
0-
1$
#75000
1!
1-
0$
1?"
1z!
0{!
0|!
0}!
1v
0u
15
04
03
12
01
10
0/
1.
1x
0w
16
05
14
02
00
1y
06
#80000
0!
0-
1$
#85000
1!
1-
0$
1="
0>"
0?"
1}!
1z
0y
0x
1w
0v
1u
1/
0.
1{
0z
1y
0w
10
0{
1V!
1W!
1X!
1\!
#90000
0!
0-
1$
#95000
1!
1-
0$
0="
1|!
0}!
1]!
0y
11
00
0/
1.
1,
1"
12
01
10
0V!
02
0W!
0X!
0\!
#100000
0!
0-
1$
#105000
1!
1-
0$
1?"
1}!
0]!
1v
0u
1/
0.
0,
0"
1w
11
00
12
#110000
0!
0-
1$
#115000
1!
1-
0$
1>"
0?"
1{!
0|!
0}!
1x
0w
0v
1u
13
02
01
10
0/
1.
1y
0x
1w
15
04
03
12
00
0y
16
05
14
06
#120000
0!
0-
1$
#125000
1!
1-
0$
1?"
1}!
1v
0u
1/
0.
1x
0w
10
1y
#130000
0!
0-
1$
#135000
1!
1-
0$
1="
0>"
0?"
1|!
0}!
1z
0y
0x
1w
0v
1u
11
00
0/
1.
1{
0z
1y
0w
13
02
01
10
0{
15
04
03
12
16
05
14
1V!
06
1W!
1X!
1\!
#140000
0!
0-
1$
#145000
1!
1-
0$
0="
1}!
1]!
0y
1/
0.
1,
1"
11
00
0V!
13
02
0W!
15
04
0X!
16
0\!
#150000
0!
0-
1$
#155000
1!
1-
0$
1?"
1y!
0z!
0{!
0|!
0}!
0]!
1v
0u
17
06
05
14
03
12
01
10
0/
1.
0,
0"
1w
18
07
16
04
02
00
08
#160000
0!
0-
1$
#165000
1!
1-
0$
1>"
0?"
1}!
1x
0w
0v
1u
1/
0.
1y
0x
1w
10
0y
#170000
0!
0-
1$
#175000
1!
1-
0$
1?"
1|!
0}!
1v
0u
11
00
0/
1.
1x
0w
12
01
10
1y
02
#180000
0!
0-
1$
#185000
1!
1-
0$
1="
0>"
0?"
1}!
1z
0y
0x
1w
0v
1u
1/
0.
1{
0z
1y
0w
11
00
0{
12
1V!
1W!
1X!
1\!
#190000
0!
0-
1$
#195000
1!
1-
0$
0="
1{!
0|!
0}!
1]!
0y
13
02
01
10
0/
1.
1,
1"
14
03
12
00
0V!
04
0W!
0X!
0\!
#200000
0!
0-
1$
#205000
1!
1-
0$
1?"
1}!
0]!
1v
0u
1/
0.
0,
0"
1w
10
#210000
0!
0-
1$
#215000
1!
1-
0$
1>"
0?"
1|!
0}!
1x
0w
0v
1u
11
00
0/
1.
1y
0x
1w
13
02
01
10
0y
14
03
12
04
#220000
0!
0-
1$
#225000
1!
1-
0$
1?"
1}!
1v
0u
1/
0.
1x
0w
11
00
1y
13
02
14
#230000
0!
0-
1$
#235000
1!
1-
0$
1="
0>"
0?"
1z!
0{!
0|!
0}!
1z
0y
0x
1w
0v
1u
15
04
03
12
01
10
0/
1.
1{
0z
1y
0w
17
06
05
14
02
00
0{
18
07
16
08
1V!
1W!
1X!
1\!
#240000
0!
0-
1$
#245000
1!
1-
0$
0="
1}!
1]!
0y
1/
0.
1,
1"
10
0V!
0W!
0X!
0\!
#250000
0!
0-
1$
#255000
1!
1-
0$
1?"
1|!
0}!
0]!
1v
0u
11
00
0/
1.
0,
0"
1w
12
01
10
02
#260000
0!
0-
1$
#265000
1!
1-
0$
1>"
0?"
1}!
1x
0w
0v
1u
1/
0.
1y
0x
1w
11
00
0y
12
#270000
0!
0-
1$
#275000
1!
1-
0$
1?"
1{!
0|!
0}!
1v
0u
13
02
01
10
0/
1.
1x
0w
15
04
03
12
00
1y
17
06
05
14
18
07
16
08
#280000
0!
0-
1$
#285000
1!
1-
0$
1="
0>"
0?"
1}!
1z
0y
0x
1w
0v
1u
1/
0.
1{
0z
1y
0w
10
0{
1m
1V!
1o
1W!
1s
1X!
1\!
#290000
0!
0-
1$
#295000
1!
1-
0$
0="
0y!
0z!
0{!
0}!
1]!
1t
0y
06
04
02
0/
1.
1,
1+
1"
1#
00
0V!
0m
0W!
0o
0X!
0s
0\!
#300000
0!
0-
1$
#305000
1!
1-
0$
1?"
1}!
0]!
0t
1v
0u
1/
0.
0,
0+
0"
0#
1w
10
#310000
0!
0-
1$
#315000
1!
1-
0$
1>"
0?"
1|!
0}!
1x
0w
0v
1u
11
00
0/
1.
1y
0x
1w
12
01
10
0y
02
#320000
0!
0-
1$
#325000
1!
1-
0$
1?"
1}!
1v
0u
1/
0.
1x
0w
11
00
1y
12
#330000
0!
0-
1$
#335000
1!
1-
0$
1="
0>"
0?"
1{!
0|!
0}!
1z
0y
0x
1w
0v
1u
13
02
01
10
0/
1.
1{
0z
1y
0w
14
03
12
00
0{
04
1V!
1W!
1X!
1\!
#340000
0!
0-
1$
#345000
1!
1-
0$
0="
1}!
1]!
0y
1/
0.
1,
1"
10
0V!
0W!
0X!
0\!
#350000
0!
0-
1$
#355000
1!
1-
0$
1?"
1|!
0}!
0]!
1v
0u
11
00
0/
1.
0,
0"
1w
13
02
01
10
14
03
12
04
#360000
0!
0-
1$
#365000
1!
1-
0$
1>"
0?"
1}!
1x
0w
0v
1u
1/
0.
1y
0x
1w
11
00
0y
13
02
14
#370000
0!
0-
1$
#375000
1!
1-
0$
1?"
1z!
0{!
0|!
0}!
1v
0u
15
04
03
12
01
10
0/
1.
1x
0w
16
05
14
02
00
1y
06
#380000
0!
0-
1$
#385000
1!
1-
0$
1="
0>"
0?"
1}!
1z
0y
0x
1w
0v
1u
1/
0.
1{
0z
1y
0w
10
0{
1V!
1W!
1X!
1\!
#390000
0!
0-
1$
#395000
1!
1-
0$
0="
1|!
0}!
1]!
0y
11
00
0/
1.
1,
1"
12
01
10
0V!
02
0W!
0X!
0\!
#400000
0!
0-
1$
#405000
1!
1-
0$
1?"
1}!
0]!
1v
0u
1/
0.
0,
0"
1w
11
00
12
#410000
0!
0-
1$
#415000
1!
1-
0$
1>"
0?"
1{!
0|!
0}!
1x
0w
0v
1u
13
02
01
10
0/
1.
1y
0x
1w
15
04
03
12
00
0y
16
05
14
06
#420000
0!
0-
1$
#425000
1!
1-
0$
1?"
1}!
1v
0u
1/
0.
1x
0w
10
1y
#430000
0!
0-
1$
#435000
1!
1-
0$
1="
0>"
0?"
1|!
0}!
1z
0y
0x
1w
0v
1u
11
00
0/
1.
1{
0z
1y
0w
13
02
01
10
0{
15
04
03
12
16
05
14
1V!
06
1W!
1X!
1\!
#440000
0!
0-
1$
#445000
1!
1-
0$
0="
1}!
1]!
0y
1/
0.
1,
1"
11
00
0V!
13
02
0W!
15
04
0X!
16
0\!
#450000
0!
0-
1$
#455000
1!
1-
0$
1?"
1y!
0z!
0{!
0|!
0}!
0]!
1v
0u
17
06
05
14
03
12
01
10
0/
1.
0,
0"
1w
18
07
16
04
02
00
08
#460000
0!
0-
1$
#465000
1!
1-
0$
1>"
0?"
1}!
1x
0w
0v
1u
1/
0.
1y
0x
1w
10
0y
#470000
0!
0-
1$
#475000
1!
1-
0$
1?"
1|!
0}!
1v
0u
11
00
0/
1.
1x
0w
12
01
10
1y
02
#480000
0!
0-
1$
#485000
1!
1-
0$
1="
0>"
0?"
1}!
1z
0y
0x
1w
0v
1u
1/
0.
1{
0z
1y
0w
11
00
0{
12
1V!
1W!
1X!
1\!
#490000
0!
0-
1$
#495000
1!
1-
0$
0="
1{!
0|!
0}!
1]!
0y
13
02
01
10
0/
1.
1,
1"
14
03
12
00
0V!
04
0W!
0X!
0\!
#500000
0!
0-
1$
#505000
1!
1-
0$
1?"
1}!
0]!
1v
0u
1/
0.
0,
0"
1w
10
#510000
0!
0-
1$
#515000
1!
1-
0$
1>"
0?"
1|!
0}!
1x
0w
0v
1u
11
00
0/
1.
1y
0x
1w
13
02
01
10
0y
14
03
12
04
#520000
0!
0-
1$
#525000
1!
1-
0$
1?"
1}!
1v
0u
1/
0.
1x
0w
11
00
1y
13
02
14
#530000
0!
0-
1$
#535000
1!
1-
0$
1="
0>"
0?"
1z!
0{!
0|!
0}!
1z
0y
0x
1w
0v
1u
15
04
03
12
01
10
0/
1.
1{
0z
1y
0w
17
06
05
14
02
00
0{
18
07
16
08
1V!
1W!
1X!
1\!
#540000
0!
0-
1$
#545000
1!
1-
0$
0="
1}!
1]!
0y
1/
0.
1,
1"
10
0V!
0W!
0X!
0\!
#550000
0!
0-
1$
#555000
1!
1-
0$
1?"
1|!
0}!
0]!
1v
0u
11
00
0/
1.
0,
0"
1w
12
01
10
02
#560000
0!
0-
1$
#565000
1!
1-
0$
1>"
0?"
1}!
1x
0w
0v
1u
1/
0.
1y
0x
1w
11
00
0y
12
#570000
0!
0-
1$
#575000
1!
1-
0$
1?"
1{!
0|!
0}!
1v
0u
13
02
01
10
0/
1.
1x
0w
15
04
03
12
00
1y
17
06
05
14
18
07
16
08
#580000
0!
0-
1$
#585000
1!
1-
0$
1="
0>"
0?"
1}!
1z
0y
0x
1w
0v
1u
1/
0.
1{
0z
1y
0w
10
0{
1m
1V!
1o
1W!
1s
1X!
1\!
#590000
0!
0-
1$
#595000
1!
1-
0$
0="
0y!
0z!
0{!
0}!
1]!
1t
0y
06
04
02
0/
1.
1,
1+
1"
1#
00
0V!
0m
0W!
0o
0X!
0s
0\!
#600000
0!
0-
1$
#605000
1!
1-
0$
1?"
1}!
0]!
0t
1v
0u
1/
0.
0,
0+
0"
0#
1w
10
#610000
0!
0-
1$
#615000
1!
1-
0$
1>"
0?"
1|!
0}!
1x
0w
0v
1u
11
00
0/
1.
1y
0x
1w
12
01
10
0y
02
#620000
0!
0-
1$
#625000
1!
1-
0$
1?"
1}!
1v
0u
1/
0.
1x
0w
11
00
1y
12
#630000
0!
0-
1$
#635000
1!
1-
0$
1="
0>"
0?"
1{!
0|!
0}!
1z
0y
0x
1w
0v
1u
13
02
01
10
0/
1.
1{
0z
1y
0w
14
03
12
00
0{
04
1V!
1W!
1X!
1\!
#640000
0!
0-
1$
#645000
1!
1-
0$
0="
1}!
1]!
0y
1/
0.
1,
1"
10
0V!
0W!
0X!
0\!
#650000
0!
0-
1$
#655000
1!
1-
0$
1?"
1|!
0}!
0]!
1v
0u
11
00
0/
1.
0,
0"
1w
13
02
01
10
14
03
12
04
#660000
0!
0-
1$
#665000
1!
1-
0$
1>"
0?"
1}!
1x
0w
0v
1u
1/
0.
1y
0x
1w
11
00
0y
13
02
14
#670000
0!
0-
1$
#675000
1!
1-
0$
1?"
1z!
0{!
0|!
0}!
1v
0u
15
04
03
12
01
10
0/
1.
1x
0w
16
05
14
02
00
1y
06
#680000
0!
0-
1$
#685000
1!
1-
0$
1="
0>"
0?"
1}!
1z
0y
0x
1w
0v
1u
1/
0.
1{
0z
1y
0w
10
0{
1V!
1W!
1X!
1\!
#690000
0!
0-
1$
#695000
1!
1-
0$
0="
1|!
0}!
1]!
0y
11
00
0/
1.
1,
1"
12
01
10
0V!
02
0W!
0X!
0\!
#700000
0!
0-
1$
#705000
1!
1-
0$
1?"
1}!
0]!
1v
0u
1/
0.
0,
0"
1w
11
00
12
#710000
0!
0-
1$
#715000
1!
1-
0$
1>"
0?"
1{!
0|!
0}!
1x
0w
0v
1u
13
02
01
10
0/
1.
1y
0x
1w
15
04
03
12
00
0y
16
05
14
06
#720000
0!
0-
1$
#725000
1!
1-
0$
1?"
1}!
1v
0u
1/
0.
1x
0w
10
1y
#730000
0!
0-
1$
#735000
1!
1-
0$
1="
0>"
0?"
1|!
0}!
1z
0y
0x
1w
0v
1u
11
00
0/
1.
1{
0z
1y
0w
13
02
01
10
0{
15
04
03
12
16
05
14
1V!
06
1W!
1X!
1\!
#740000
0!
0-
1$
#745000
1!
1-
0$
0="
1}!
1]!
0y
1/
0.
1,
1"
11
00
0V!
13
02
0W!
15
04
0X!
16
0\!
#750000
0!
0-
1$
#755000
1!
1-
0$
1?"
1y!
0z!
0{!
0|!
0}!
0]!
1v
0u
17
06
05
14
03
12
01
10
0/
1.
0,
0"
1w
18
07
16
04
02
00
08
#760000
0!
0-
1$
#765000
1!
1-
0$
1>"
0?"
1}!
1x
0w
0v
1u
1/
0.
1y
0x
1w
10
0y
#770000
0!
0-
1$
#775000
1!
1-
0$
1?"
1|!
0}!
1v
0u
11
00
0/
1.
1x
0w
12
01
10
1y
02
#780000
0!
0-
1$
#785000
1!
1-
0$
1="
0>"
0?"
1}!
1z
0y
0x
1w
0v
1u
1/
0.
1{
0z
1y
0w
11
00
0{
12
1V!
1W!
1X!
1\!
#790000
0!
0-
1$
#795000
1!
1-
0$
0="
1{!
0|!
0}!
1]!
0y
13
02
01
10
0/
1.
1,
1"
14
03
12
00
0V!
04
0W!
0X!
0\!
#800000
0!
0-
1$
#805000
1!
1-
0$
1?"
1}!
0]!
1v
0u
1/
0.
0,
0"
1w
10
#810000
0!
0-
1$
#815000
1!
1-
0$
1>"
0?"
1|!
0}!
1x
0w
0v
1u
11
00
0/
1.
1y
0x
1w
13
02
01
10
0y
14
03
12
04
#820000
0!
0-
1$
#825000
1!
1-
0$
1?"
1}!
1v
0u
1/
0.
1x
0w
11
00
1y
13
02
14
#830000
0!
0-
1$
#835000
1!
1-
0$
1="
0>"
0?"
1z!
0{!
0|!
0}!
1z
0y
0x
1w
0v
1u
15
04
03
12
01
10
0/
1.
1{
0z
1y
0w
17
06
05
14
02
00
0{
18
07
16
08
1V!
1W!
1X!
1\!
#840000
0!
0-
1$
#845000
1!
1-
0$
0="
1}!
1]!
0y
1/
0.
1,
1"
10
0V!
0W!
0X!
0\!
#850000
0!
0-
1$
#855000
1!
1-
0$
1?"
1|!
0}!
0]!
1v
0u
11
00
0/
1.
0,
0"
1w
12
01
10
02
#860000
0!
0-
1$
#865000
1!
1-
0$
1>"
0?"
1}!
1x
0w
0v
1u
1/
0.
1y
0x
1w
11
00
0y
12
#870000
0!
0-
1$
#875000
1!
1-
0$
1?"
1{!
0|!
0}!
1v
0u
13
02
01
10
0/
1.
1x
0w
15
04
03
12
00
1y
17
06
05
14
18
07
16
08
#880000
0!
0-
1$
#885000
1!
1-
0$
1="
0>"
0?"
1}!
1z
0y
0x
1w
0v
1u
1/
0.
1{
0z
1y
0w
10
0{
1m
1V!
1o
1W!
1s
1X!
1\!
#890000
0!
0-
1$
#895000
1!
1-
0$
0="
0y!
0z!
0{!
0}!
1]!
1t
0y
06
04
02
0/
1.
1,
1+
1"
1#
00
0V!
0m
0W!
0o
0X!
0s
0\!
#900000
0!
0-
1$
#905000
1!
1-
0$
1?"
1}!
0]!
0t
1v
0u
1/
0.
0,
0+
0"
0#
1w
10
#910000
0!
0-
1$
#915000
1!
1-
0$
1>"
0?"
1|!
0}!
1x
0w
0v
1u
11
00
0/
1.
1y
0x
1w
12
01
10
0y
02
#920000
0!
0-
1$
#925000
1!
1-
0$
1?"
1}!
1v
0u
1/
0.
1x
0w
11
00
1y
12
#930000
0!
0-
1$
#935000
1!
1-
0$
1="
0>"
0?"
1{!
0|!
0}!
1z
0y
0x
1w
0v
1u
13
02
01
10
0/
1.
1{
0z
1y
0w
14
03
12
00
0{
04
1V!
1W!
1X!
1\!
#940000
0!
0-
1$
#945000
1!
1-
0$
0="
1}!
1]!
0y
1/
0.
1,
1"
10
0V!
0W!
0X!
0\!
#950000
0!
0-
1$
#955000
1!
1-
0$
1?"
1|!
0}!
0]!
1v
0u
11
00
0/
1.
0,
0"
1w
13
02
01
10
14
03
12
04
#960000
0!
0-
1$
#965000
1!
1-
0$
1>"
0?"
1}!
1x
0w
0v
1u
1/
0.
1y
0x
1w
11
00
0y
13
02
14
#970000
0!
0-
1$
#975000
1!
1-
0$
1?"
1z!
0{!
0|!
0}!
1v
0u
15
04
03
12
01
10
0/
1.
1x
0w
16
05
14
02
00
1y
06
#980000
0!
0-
1$
#985000
1!
1-
0$
1="
0>"
0?"
1}!
1z
0y
0x
1w
0v
1u
1/
0.
1{
0z
1y
0w
10
0{
1V!
1W!
1X!
1\!
#990000
0!
0-
1$
#995000
1!
1-
0$
0="
1|!
0}!
1]!
0y
11
00
0/
1.
1,
1"
12
01
10
0V!
02
0W!
0X!
0\!
