3.Firmware/Verilog_Outlines/simulation/qsim/verilog_outlines.msim.vcd
$comment
	File created using the following command:
		vcd file verilog_outlines.msim.vcd -direction
$end
$date
	Sat Jul 02 18:45:13 2022
$end
$version
	ModelSim Version 10.1d
$end
$timescale
	1ps
$end
$scope module debouncer_vlg_vec_tst $end
$var reg 1 ! clk $end
$var reg 1 " pb_1 $end
$var wire 1 # pb_out $end
$var wire 1 $ sampler $end
$scope module i1 $end
$var wire 1 % gnd $end
$var wire 1 & vcc $end
$var wire 1 ' unknown $end
$var tri1 1 ( devclrn $end
$var tri1 1 ) devpor $end
$var tri1 1 * devoe $end
$var wire 1 + pb_out~output_o $end
$var wire 1 , clk~input_o $end
$var wire 1 - pb_1~input_o $end
$var wire 1 . d0|Q~q $end
$var wire 1 / d1|Q~q $end
$var wire 1 0 d2|Q~q $end
$var wire 1 1 pb_out~0_combout $end
$upscope $end
$upscope $end
$enddefinitions $end
#0
$dumpvars
0!
0"
0#
x$
0%
1&
x'
1(
1)
1*
0+
0,
0-
0.
0/
00
01
$end
#500000
1!
1,
0$
#1000000
0!
0,
1$
#1500000
1!
1,
0$
#1580000
1"
1-
1$
#1600000
0"
0-
0$
#1640000
1"
1-
1$
#1660000
0"
0-
0$
#1680000
1"
1-
1$
#1720000
0"
0-
0$
#1740000
1"
1-
1$
#1800000
0"
0-
0$
#1840000
1"
1-
1$
#1860000
0"
0-
0$
#1920000
1"
1-
1$
#2000000
0!
0,
0$
#2500000
1!
1,
1$
1.
#3000000
0!
0,
0$
#3500000
1!
1,
1$
1/
11
1+
1#
#4000000
0!
0,
0$
#4500000
1!
1,
1$
10
01
0+
0#
#5000000
0!
0,
0$
#5500000
1!
1,
1$
#6000000
0!
0,
0$
#6500000
1!
1,
1$
#7000000
0!
0,
0$
#7500000
1!
1,
1$
#7685000
0"
0-
0$
#7690000
1"
1-
1$
#7700000
0"
0-
0$
#7705000
1"
1-
1$
#7725000
0"
0-
0$
#7745000
1"
1-
1$
#7755000
0"
0-
0$
#7760000
1"
1-
1$
#7775000
0"
0-
0$
#7780000
1"
1-
1$
#7785000
0"
0-
0$
#7790000
1"
1-
1$
#7795000
0"
0-
0$
#7805000
1"
1-
1$
#7825000
0"
0-
0$
#7830000
1"
1-
1$
#7840000
0"
0-
0$
#7845000
1"
1-
1$
#7850000
0"
0-
0$
#7875000
1"
1-
1$
#7880000
0"
0-
0$
#7885000
1"
1-
1$
#7890000
0"
0-
0$
#7895000
1"
1-
1$
#7905000
0"
0-
0$
#7935000
1"
1-
1$
#7940000
0"
0-
0$
#7945000
1"
1-
1$
#7950000
0"
0-
0$
#7960000
1"
1-
1$
#7965000
0"
0-
0$
#7985000
1"
1-
1$
#8000000
0!
0"
0,
0-
0$
#8010000
1"
1-
1$
#8015000
0"
0-
0$
#8020000
1"
1-
1$
#8030000
0"
0-
0$
#8055000
1"
1-
1$
#8060000
0"
0-
0$
#8090000
1"
1-
1$
#8095000
0"
0-
0$
#8100000
1"
1-
1$
#8105000
0"
0-
0$
#8110000
1"
1-
1$
#8115000
0"
0-
0$
#8130000
1"
1-
1$
#8140000
0"
0-
0$
#8145000
1"
1-
1$
#8160000
0"
0-
0$
#8500000
1!
1,
1$
0.
#9000000
0!
0,
0$
#9500000
1!
1,
1$
0/
#10000000
0!
0,
0$
#10500000
1!
1,
1$
00
#11000000
0!
0,
0$
#11500000
1!
1,
1$
#12000000
0!
0,
0$
#12410000
1"
1-
1$
#12415000
0"
0-
0$
#12425000
1"
1-
1$
#12435000
0"
0-
0$
#12440000
1"
1-
1$
#12450000
0"
0-
0$
#12455000
1"
1-
1$
#12465000
0"
0-
0$
#12470000
1"
1-
1$
#12475000
0"
0-
0$
#12480000
1"
1-
1$
#12485000
0"
0-
0$
#12490000
1"
1-
1$
#12500000
1!
0"
1,
0-
0$
1.
#12505000
1"
1-
1$
#12515000
0"
0-
0$
#12525000
1"
1-
1$
#12530000
0"
0-
0$
#12540000
1"
1-
1$
#12550000
0"
0-
0$
#12555000
1"
1-
1$
#12565000
0"
0-
0$
#12570000
1"
1-
1$
#12575000
0"
0-
0$
#12585000
1"
1-
1$
#12600000
0"
0-
0$
#12605000
1"
1-
1$
#12610000
0"
0-
0$
#12635000
1"
1-
1$
#12640000
0"
0-
0$
#12645000
1"
1-
1$
#12650000
0"
0-
0$
#12655000
1"
1-
1$
#12665000
0"
0-
0$
#12700000
1"
1-
1$
#12710000
0"
0-
0$
#12715000
1"
1-
1$
#13000000
0!
0,
0$
#13500000
1!
1,
1$
1/
11
1+
1#
#14000000
0!
0,
0$
#14480000
0"
0-
1$
#14485000
1"
1-
0$
#14500000
1!
1,
1$
10
01
0+
0#
#14505000
0"
0-
0$
#14510000
1"
1-
1$
#14520000
0"
0-
0$
#14530000
1"
1-
1$
#14545000
0"
0-
0$
#14550000
1"
1-
1$
#14560000
0"
0-
0$
#15000000
0!
0,
1$
#15500000
1!
1,
0$
0.
#16000000
0!
0,
1$
#16500000
1!
1,
0$
0/
#17000000
0!
0,
1$
#17500000
1!
1,
0$
00
#18000000
0!
0,
1$
#18500000
1!
1,
0$
#19000000
0!
0,
1$
#19500000
1!
1,
0$
