3.Firmware/Button_Test/simulation/qsim/button_test.msim.vcd
$comment
	File created using the following command:
		vcd file button_test.msim.vcd -direction
$end
$date
	Sun Jul 03 00:20:11 2022
$end
$version
	ModelSim Version 10.1d
$end
$timescale
	1ps
$end
$scope module button_test_vlg_vec_tst $end
$var reg 1 ! clk $end
$var reg 1 " in_0 $end
$var reg 1 # in_1 $end
$var reg 1 $ start $end
$var wire 1 % bouncy4 $end
$var wire 1 & ff $end
$var wire 1 ' p_out [3] $end
$var wire 1 ( p_out [2] $end
$var wire 1 ) p_out [1] $end
$var wire 1 * p_out [0] $end
$var wire 1 + sampler $end
$scope module i1 $end
$var wire 1 , gnd $end
$var wire 1 - vcc $end
$var wire 1 . unknown $end
$var tri1 1 / devclrn $end
$var tri1 1 0 devpor $end
$var tri1 1 1 devoe $end
$var wire 1 2 ~QUARTUS_CREATED_GND~I_combout $end
$var wire 1 3 clk~input_o $end
$var wire 1 4 clk~inputCLKENA0_outclk $end
$var wire 1 5 inst2|Add1~57_sumout $end
$var wire 1 6 inst2|Add1~58 $end
$var wire 1 7 inst2|Add1~61_sumout $end
$var wire 1 8 inst2|Add1~62 $end
$var wire 1 9 inst2|Add1~65_sumout $end
$var wire 1 : inst2|Add1~66 $end
$var wire 1 ; inst2|Add1~69_sumout $end
$var wire 1 < inst2|Add1~70 $end
$var wire 1 = inst2|Add1~73_sumout $end
$var wire 1 > inst2|Add1~74 $end
$var wire 1 ? inst2|Add1~77_sumout $end
$var wire 1 @ inst2|Add1~78 $end
$var wire 1 A inst2|Add1~121_sumout $end
$var wire 1 B inst2|Add1~122 $end
$var wire 1 C inst2|Add1~125_sumout $end
$var wire 1 D inst2|Add1~126 $end
$var wire 1 E inst2|Add1~101_sumout $end
$var wire 1 F inst2|Add1~102 $end
$var wire 1 G inst2|Add1~105_sumout $end
$var wire 1 H inst2|Add1~106 $end
$var wire 1 I inst2|Add1~109_sumout $end
$var wire 1 J inst2|Add1~110 $end
$var wire 1 K inst2|Add1~37_sumout $end
$var wire 1 L inst2|Add1~38 $end
$var wire 1 M inst2|Add1~41_sumout $end
$var wire 1 N inst2|Add1~42 $end
$var wire 1 O inst2|Add1~45_sumout $end
$var wire 1 P inst2|Add1~46 $end
$var wire 1 Q inst2|Add1~49_sumout $end
$var wire 1 R inst2|Add1~50 $end
$var wire 1 S inst2|Add1~113_sumout $end
$var wire 1 T inst2|Add1~114 $end
$var wire 1 U inst2|Add1~53_sumout $end
$var wire 1 V inst2|Add1~54 $end
$var wire 1 W inst2|Add1~117_sumout $end
$var wire 1 X inst2|Add1~118 $end
$var wire 1 Y inst2|Add1~81_sumout $end
$var wire 1 Z inst2|Add1~82 $end
$var wire 1 [ inst2|Add1~85_sumout $end
$var wire 1 \ inst2|Add1~86 $end
$var wire 1 ] inst2|Add1~89_sumout $end
$var wire 1 ^ inst2|Add1~90 $end
$var wire 1 _ inst2|Add1~17_sumout $end
$var wire 1 ` inst2|Add1~18 $end
$var wire 1 a inst2|Add1~21_sumout $end
$var wire 1 b inst2|Add1~22 $end
$var wire 1 c inst2|Add1~25_sumout $end
$var wire 1 d inst2|Add1~26 $end
$var wire 1 e inst2|Add1~29_sumout $end
$var wire 1 f inst2|Add1~30 $end
$var wire 1 g inst2|Add1~93_sumout $end
$var wire 1 h inst2|Add1~94 $end
$var wire 1 i inst2|Add1~33_sumout $end
$var wire 1 j inst2|Add1~34 $end
$var wire 1 k inst2|Add1~97_sumout $end
$var wire 1 l inst2|Add1~98 $end
$var wire 1 m inst2|Add1~1_sumout $end
$var wire 1 n inst2|Add1~2 $end
$var wire 1 o inst2|Add1~5_sumout $end
$var wire 1 p inst2|Add1~6 $end
$var wire 1 q inst2|Add1~9_sumout $end
$var wire 1 r inst2|Add1~10 $end
$var wire 1 s inst2|Add1~13_sumout $end
$var wire 1 t inst2|Equal1~0_combout $end
$var wire 1 u inst2|Equal1~6_combout $end
$var wire 1 v inst2|Equal1~1_combout $end
$var wire 1 w inst2|Equal1~4_combout $end
$var wire 1 x inst2|Equal1~5_combout $end
$var wire 1 y inst2|Equal1~2_combout $end
$var wire 1 z inst2|Equal1~3_combout $end
$var wire 1 { inst2|fract_clk~q $end
$var wire 1 | start~input_o $end
$var wire 1 } inst3|d0|Q~feeder_combout $end
$var wire 1 ~ inst3|d0|Q~q $end
$var wire 1 !! inst3|d1|Q~q $end
$var wire 1 "! inst3|d2|Q~q $end
$var wire 1 #! inst3|pb_out~combout $end
$var wire 1 $! in_1~input_o $end
$var wire 1 %! inst5|d0|Q~feeder_combout $end
$var wire 1 &! inst5|d0|Q~q $end
$var wire 1 '! inst5|d1|Q~q $end
$var wire 1 (! inst5|d2|Q~q $end
$var wire 1 )! inst|p_out[2]~0_combout $end
$var wire 1 *! in_0~input_o $end
$var wire 1 +! inst4|d0|Q~feeder_combout $end
$var wire 1 ,! inst4|d0|Q~q $end
$var wire 1 -! inst4|d1|Q~q $end
$var wire 1 .! inst4|d2|Q~DUPLICATE_q $end
$var wire 1 /! inst4|pb_out~combout $end
$var wire 1 0! inst|count4~2_combout $end
$var wire 1 1! inst|count4~1_combout $end
$var wire 1 2! inst|count4~3_combout $end
$var wire 1 3! inst|count4~0_combout $end
$var wire 1 4! inst|count4~4_combout $end
$var wire 1 5! inst|count4[1]~DUPLICATE_q $end
$var wire 1 6! inst|stop~0_combout $end
$var wire 1 7! inst|stop~2_combout $end
$var wire 1 8! inst|stop~q $end
$var wire 1 9! inst3|d2|Q~DUPLICATE_q $end
$var wire 1 :! inst|stop~1_combout $end
$var wire 1 ;! inst|count4~5_combout $end
$var wire 1 <! inst|p_out~1_combout $end
$var wire 1 =! inst|p_out~2_combout $end
$var wire 1 >! inst|pout~0_combout $end
$var wire 1 ?! inst|pout~1_combout $end
$var wire 1 @! inst|p_out~3_combout $end
$var wire 1 A! inst|p_out~4_combout $end
$var wire 1 B! inst|count4[2]~DUPLICATE_q $end
$var wire 1 C! inst4|d2|Q~q $end
$var wire 1 D! inst|p_out[2]~10_combout $end
$var wire 1 E! inst|p_out[2]~5_combout $end
$var wire 1 F! inst|p_out~6_combout $end
$var wire 1 G! inst|pout~3_combout $end
$var wire 1 H! inst|pout~2_combout $end
$var wire 1 I! inst|pout~4_combout $end
$var wire 1 J! inst|p_out~7_combout $end
$var wire 1 K! inst|p_out~8_combout $end
$var wire 1 L! inst|pout~5_combout $end
$var wire 1 M! inst|pout~6_combout $end
$var wire 1 N! inst|p_out~9_combout $end
$var wire 1 O! inst|pout [3] $end
$var wire 1 P! inst|pout [2] $end
$var wire 1 Q! inst|pout [1] $end
$var wire 1 R! inst|pout [0] $end
$var wire 1 S! inst|p_out [3] $end
$var wire 1 T! inst|p_out [2] $end
$var wire 1 U! inst|p_out [1] $end
$var wire 1 V! inst|p_out [0] $end
$var wire 1 W! inst2|fract_timer [31] $end
$var wire 1 X! inst2|fract_timer [30] $end
$var wire 1 Y! inst2|fract_timer [29] $end
$var wire 1 Z! inst2|fract_timer [28] $end
$var wire 1 [! inst2|fract_timer [27] $end
$var wire 1 \! inst2|fract_timer [26] $end
$var wire 1 ]! inst2|fract_timer [25] $end
$var wire 1 ^! inst2|fract_timer [24] $end
$var wire 1 _! inst2|fract_timer [23] $end
$var wire 1 `! inst2|fract_timer [22] $end
$var wire 1 a! inst2|fract_timer [21] $end
$var wire 1 b! inst2|fract_timer [20] $end
$var wire 1 c! inst2|fract_timer [19] $end
$var wire 1 d! inst2|fract_timer [18] $end
$var wire 1 e! inst2|fract_timer [17] $end
$var wire 1 f! inst2|fract_timer [16] $end
$var wire 1 g! inst2|fract_timer [15] $end
$var wire 1 h! inst2|fract_timer [14] $end
$var wire 1 i! inst2|fract_timer [13] $end
$var wire 1 j! inst2|fract_timer [12] $end
$var wire 1 k! inst2|fract_timer [11] $end
$var wire 1 l! inst2|fract_timer [10] $end
$var wire 1 m! inst2|fract_timer [9] $end
$var wire 1 n! inst2|fract_timer [8] $end
$var wire 1 o! inst2|fract_timer [7] $end
$var wire 1 p! inst2|fract_timer [6] $end
$var wire 1 q! inst2|fract_timer [5] $end
$var wire 1 r! inst2|fract_timer [4] $end
$var wire 1 s! inst2|fract_timer [3] $end
$var wire 1 t! inst2|fract_timer [2] $end
$var wire 1 u! inst2|fract_timer [1] $end
$var wire 1 v! inst2|fract_timer [0] $end
$var wire 1 w! inst|count4 [2] $end
$var wire 1 x! inst|count4 [1] $end
$var wire 1 y! inst|count4 [0] $end
$upscope $end
$upscope $end
$enddefinitions $end
#0
$dumpvars
0!
0"
0#
0$
0%
0&
0*
0)
0(
0'
x+
0,
1-
x.
1/
10
11
02
03
04
15
06
07
08
09
0:
0;
0<
0=
0>
0?
0@
0A
0B
0C
0D
0E
0F
0G
0H
0I
0J
0K
0L
0M
0N
0O
0P
0Q
0R
0S
0T
0U
0V
0W
0X
0Y
0Z
0[
0\
0]
0^
0_
0`
0a
0b
0c
0d
0e
0f
0g
0h
0i
0j
0k
0l
0m
0n
0o
0p
0q
0r
0s
0t
0u
0v
0w
0x
0y
0z
0{
0|
0}
0~
0!!
0"!
1#!
0$!
0%!
0&!
0'!
0(!
0)!
0*!
0+!
0,!
0-!
0.!
0/!
00!
01!
12!
03!
04!
05!
06!
07!
08!
09!
1:!
0;!
0<!
0=!
0>!
0?!
0@!
0A!
0B!
0C!
0D!
0E!
0F!
0G!
0H!
0I!
0J!
1K!
0L!
0M!
0N!
0R!
0Q!
0P!
zO!
0V!
0U!
0T!
0S!
0v!
0u!
0t!
0s!
0r!
0q!
0p!
0o!
0n!
0m!
0l!
0k!
0j!
0i!
0h!
0g!
0f!
0e!
0d!
0c!
0b!
0a!
0`!
0_!
0^!
0]!
0\!
0[!
0Z!
0Y!
0X!
0W!
0y!
0x!
0w!
$end
#320000
1$
1|
0+
1}
#330000
0$
0|
1+
0}
#335000
1$
1|
0+
1}
#345000
0$
0|
1+
0}
#375000
1$
1|
0+
1}
#385000
0$
0|
1+
0}
#390000
1$
1|
0+
1}
#395000
0$
0|
1+
0}
#400000
1!
1$
13
1|
14
0+
1}
1v!
16
05
17
1t
0t
#410000
0$
0|
1+
0}
#425000
1$
1|
0+
1}
#435000
0$
0|
1+
0}
#455000
1$
1|
0+
1}
#475000
0$
0|
1+
0}
#485000
1$
1|
0+
1}
#495000
0$
0|
1+
0}
#500000
0!
1$
03
1|
04
0+
1}
#505000
0$
0|
1+
0}
#520000
1$
1|
0+
1}
#525000
0$
0|
1+
0}
#530000
1$
1|
0+
1}
#545000
0$
0|
1+
0}
#550000
1$
1|
0+
1}
#560000
0$
0|
1+
0}
#575000
1$
1|
0+
1}
#590000
0$
0|
1+
0}
#600000
1$
1|
0+
1}
#605000
0$
0|
1+
0}
#625000
1$
1|
0+
1}
#900000
1!
13
14
1+
1u!
0v!
18
07
06
15
19
08
17
09
#1000000
0!
03
04
0+
#1400000
1!
13
14
1+
1v!
16
05
18
07
19
1t
0t
#1500000
0!
03
04
0+
#1900000
1!
13
14
1+
1t!
0u!
0v!
1:
09
08
17
06
15
1;
0:
19
07
0;
#2000000
0!
03
04
0+
#2240000
0$
0|
1+
0}
#2245000
1$
1|
0+
1}
#2250000
0$
0|
1+
0}
#2255000
1$
1|
0+
1}
#2265000
0$
0|
1+
0}
#2285000
1$
1|
0+
1}
#2290000
0$
0|
1+
0}
#2300000
1$
1|
0+
1}
#2305000
0$
0|
1+
0}
#2310000
1$
1|
0+
1}
#2315000
0$
0|
1+
0}
#2320000
1$
1|
0+
1}
#2325000
0$
0|
1+
0}
#2340000
1$
1|
0+
1}
#2345000
0$
0|
1+
0}
#2365000
1$
1|
0+
1}
#2370000
0$
0|
1+
0}
#2375000
1$
1|
0+
1}
#2390000
0$
0|
1+
0}
#2395000
1$
1|
0+
1}
#2400000
1!
0$
13
0|
14
1+
0}
1v!
16
05
17
#2500000
0!
03
04
0+
#2900000
1!
13
14
1+
1u!
0v!
18
07
06
15
1:
09
08
17
1;
0:
19
0;
#3000000
0!
03
04
0+
#3040000
1"
1*!
1+
1+!
#3050000
0"
0*!
0+
0+!
#3060000
1"
1*!
1+
1+!
#3075000
0"
0*!
0+
0+!
#3080000
1"
1*!
1+
1+!
#3085000
0"
0*!
0+
0+!
#3095000
1"
1*!
1+
1+!
#3100000
0"
0*!
0+
0+!
#3105000
1"
1*!
1+
1+!
#3135000
0"
0*!
0+
0+!
#3140000
1"
1*!
1+
1+!
#3155000
0"
0*!
0+
0+!
#3165000
1"
1*!
1+
1+!
#3175000
0"
0*!
0+
0+!
#3180000
1"
1*!
1+
1+!
#3185000
0"
0*!
0+
0+!
#3190000
1"
1*!
1+
1+!
#3195000
0"
0*!
0+
0+!
#3200000
1"
1*!
1+
1+!
#3400000
1!
13
14
0+
1v!
16
05
18
07
1:
09
1;
1t
0t
#3500000
0!
03
04
1+
#3900000
1!
13
14
0+
1s!
0t!
0u!
0v!
1<
0;
0:
19
08
17
06
15
1=
0<
1;
09
07
0=
#4000000
0!
03
04
1+
#4320000
0"
0*!
0+
0+!
#4335000
1"
1*!
1+
1+!
#4340000
0"
0*!
0+
0+!
#4350000
1"
1*!
1+
1+!
#4365000
0"
0*!
0+
0+!
#4370000
1"
1*!
1+
1+!
#4375000
0"
0*!
0+
0+!
#4380000
1"
1*!
1+
1+!
#4385000
0"
0*!
0+
0+!
#4395000
1"
1*!
1+
1+!
#4400000
1!
13
14
0+
1v!
16
05
17
#4405000
0"
0*!
1+
0+!
#4410000
1"
1*!
0+
1+!
#4430000
0"
0*!
1+
0+!
#4445000
1"
1*!
0+
1+!
#4455000
0"
0*!
1+
0+!
#4460000
1"
1*!
0+
1+!
#4465000
0"
0*!
1+
0+!
#4500000
0!
03
04
0+
#4900000
1!
13
14
1+
1u!
0v!
18
07
06
15
19
08
17
09
#5000000
0!
03
04
0+
#5400000
1!
13
14
1+
1v!
16
05
18
07
19
#5500000
0!
03
04
0+
#5765000
1#
1$!
1+
1%!
#5770000
0#
0$!
0+
0%!
#5775000
1#
1$!
1+
1%!
#5780000
0#
0$!
0+
0%!
#5815000
1#
1$!
1+
1%!
#5820000
0#
0$!
0+
0%!
#5825000
1#
1$!
1+
1%!
#5835000
0#
0$!
0+
0%!
#5855000
1#
1$!
1+
1%!
#5860000
0#
0$!
0+
0%!
#5870000
1#
1$!
1+
1%!
#5885000
0#
0$!
0+
0%!
#5900000
1!
13
14
1+
1t!
0u!
0v!
1:
09
08
17
06
15
1<
0;
0:
19
07
1=
0<
1;
0=
#5905000
1#
1$!
0+
1%!
#5910000
0#
0$!
1+
0%!
#5920000
1#
1$!
0+
1%!
#6000000
0!
03
04
1+
#6400000
1!
13
14
0+
1v!
16
05
17
#6500000
0!
03
04
1+
#6900000
1!
13
14
0+
1u!
0v!
18
07
06
15
1:
09
08
17
1<
0;
0:
19
1=
0<
1;
0=
#7000000
0!
03
04
1+
#7400000
1!
13
14
0+
1v!
16
05
18
07
1:
09
1<
0;
1=
1t
0t
#7500000
0!
03
04
1+
#7680000
0#
0$!
0+
0%!
#7690000
1#
1$!
1+
1%!
#7695000
0#
0$!
0+
0%!
#7700000
1#
1$!
1+
1%!
#7705000
0#
0$!
0+
0%!
#7710000
1#
1$!
1+
1%!
#7715000
0#
0$!
0+
0%!
#7725000
1#
1$!
1+
1%!
#7745000
0#
0$!
0+
0%!
#7750000
1#
1$!
1+
1%!
#7760000
0#
0$!
0+
0%!
#7765000
1#
1$!
1+
1%!
#7775000
0#
0$!
0+
0%!
#7795000
1#
1$!
1+
1%!
#7825000
0#
0$!
0+
0%!
#7900000
1!
13
14
1+
1r!
0s!
0t!
0u!
0v!
1>
0=
0<
1;
0:
19
08
17
06
15
1?
0>
1=
0;
09
07
0?
#8000000
0!
03
04
0+
#8400000
1!
13
14
1+
1v!
16
05
17
#8480000
1#
1$!
0+
1%!
#8495000
0#
0$!
1+
0%!
#8500000
0!
1#
03
1$!
04
0+
1%!
#8525000
0#
0$!
1+
0%!
#8530000
1#
1$!
0+
1%!
#8540000
0#
0$!
1+
0%!
#8545000
1#
1$!
0+
1%!
#8565000
0#
0$!
1+
0%!
#8575000
1#
1$!
0+
1%!
#8585000
0#
0$!
1+
0%!
#8605000
1#
1$!
0+
1%!
#8620000
0#
0$!
1+
0%!
#8630000
1#
1$!
0+
1%!
#8635000
0#
0$!
1+
0%!
#8640000
1#
1$!
0+
1%!
#8900000
1!
13
14
1+
1u!
0v!
18
07
06
15
19
08
17
09
#9000000
0!
03
04
0+
#9400000
1!
13
14
1+
1v!
16
05
18
07
19
#9500000
0!
03
04
0+
#9900000
1!
13
14
1+
1t!
0u!
0v!
1:
09
08
17
06
15
1;
0:
19
07
0;
#10000000
0!
03
04
0+
#10245000
0#
0$!
1+
0%!
#10255000
1#
1$!
0+
1%!
#10260000
0#
0$!
1+
0%!
#10265000
1#
1$!
0+
1%!
#10270000
0#
0$!
1+
0%!
#10290000
1#
1$!
0+
1%!
#10300000
0#
0$!
1+
0%!
#10310000
1#
1$!
0+
1%!
#10315000
0#
0$!
1+
0%!
#10340000
1#
1$!
0+
1%!
#10345000
0#
0$!
1+
0%!
#10350000
1#
1$!
0+
1%!
#10355000
0#
0$!
1+
0%!
#10380000
1#
1$!
0+
1%!
#10390000
0#
0$!
1+
0%!
#10395000
1#
1$!
0+
1%!
#10400000
1!
0#
13
0$!
14
1+
0%!
1v!
16
05
17
#10500000
0!
03
04
0+
#10880000
1"
1*!
1+
1+!
#10900000
1!
13
14
0+
1u!
0v!
18
07
06
15
1:
09
08
17
1;
0:
19
0;
#11000000
0!
03
04
1+
#11400000
1!
13
14
0+
1v!
16
05
18
07
1:
09
1;
#11500000
0!
03
04
1+
#11900000
1!
13
14
0+
1s!
0t!
0u!
0v!
1<
0;
0:
19
08
17
06
15
1>
0=
0<
1;
09
07
1?
0>
1=
0?
#12000000
0!
03
04
1+
#12400000
1!
13
14
0+
1v!
16
05
17
#12480000
0"
0*!
1+
0+!
#12500000
0!
03
04
0+
#12900000
1!
13
14
1+
1u!
0v!
18
07
06
15
19
08
17
09
#13000000
0!
03
04
0+
#13400000
1!
13
14
1+
1v!
16
05
18
07
19
#13500000
0!
03
04
0+
#13900000
1!
13
14
1+
1t!
0u!
0v!
1:
09
08
17
06
15
1<
0;
0:
19
07
1>
0=
0<
1;
1?
0>
1=
0?
#14000000
0!
03
04
0+
#14400000
1!
13
14
1+
1v!
16
05
17
#14500000
0!
03
04
0+
#14900000
1!
13
14
1+
1u!
0v!
18
07
06
15
1:
09
08
17
1<
0;
0:
19
1>
0=
0<
1;
1?
0>
1=
0?
#15000000
0!
03
04
0+
#15400000
1!
13
14
1+
1v!
16
05
18
07
1:
09
1<
0;
1>
0=
1?
1t
0t
#15500000
0!
03
04
0+
#15900000
1!
13
14
1+
1q!
0r!
0s!
0t!
0u!
0v!
1@
0?
0>
1=
0<
1;
0:
19
08
17
06
15
1A
0@
1?
0=
0;
09
07
0A
#16000000
0!
03
04
0+
#16400000
1!
13
14
1+
1v!
16
05
17
#16500000
0!
03
04
0+
#16900000
1!
13
14
1+
1u!
0v!
18
07
06
15
19
08
17
09
#17000000
0!
03
04
0+
#17400000
1!
13
14
1+
1v!
16
05
18
07
19
#17500000
0!
03
04
0+
#17900000
1!
13
14
1+
1t!
0u!
0v!
1:
09
08
17
06
15
1;
0:
19
07
0;
#18000000
0!
03
04
0+
#18400000
1!
13
14
1+
1v!
16
05
17
#18500000
0!
03
04
0+
#18900000
1!
13
14
1+
1u!
0v!
18
07
06
15
1:
09
08
17
1;
0:
19
0;
#19000000
0!
03
04
0+
#19400000
1!
13
14
1+
1v!
16
05
18
07
1:
09
1;
#19500000
0!
03
04
0+
#19900000
1!
13
14
1+
1s!
0t!
0u!
0v!
1<
0;
0:
19
08
17
06
15
1=
0<
1;
09
07
0=
#20000000
0!
03
04
0+
#20400000
1!
13
14
1+
1v!
16
05
17
#20500000
0!
03
04
0+
#20900000
1!
13
14
1+
1u!
0v!
18
07
06
15
19
08
17
09
#21000000
0!
03
04
0+
#21400000
1!
13
14
1+
1v!
16
05
18
07
19
#21500000
0!
03
04
0+
#21900000
1!
13
14
1+
1t!
0u!
0v!
1:
09
08
17
06
15
1<
0;
0:
19
07
1=
0<
1;
0=
#22000000
0!
03
04
0+
#22400000
1!
13
14
1+
1v!
16
05
17
#22500000
0!
03
04
0+
#22900000
1!
13
14
1+
1u!
0v!
18
07
06
15
1:
09
08
17
1<
0;
0:
19
1=
0<
1;
0=
#23000000
0!
03
04
0+
#23400000
1!
13
14
1+
1v!
16
05
18
07
1:
09
1<
0;
1=
#23500000
0!
03
04
0+
#23900000
1!
13
14
1+
1r!
0s!
0t!
0u!
0v!
1>
0=
0<
1;
0:
19
08
17
06
15
1@
0?
0>
1=
0;
09
07
1A
0@
1?
0A
#24000000
0!
03
04
0+
#24400000
1!
13
14
1+
1v!
16
05
17
#24500000
0!
03
04
0+
#24900000
1!
13
14
1+
1u!
0v!
18
07
06
15
19
08
17
09
#25000000
0!
03
04
0+
#25400000
1!
13
14
1+
1v!
16
05
18
07
19
#25500000
0!
03
04
0+
#25900000
1!
13
14
1+
1t!
0u!
0v!
1:
09
08
17
06
15
1;
0:
19
07
0;
#26000000
0!
03
04
0+
#26400000
1!
13
14
1+
1v!
16
05
17
#26500000
0!
03
04
0+
#26900000
1!
13
14
1+
1u!
0v!
18
07
06
15
1:
09
08
17
1;
0:
19
0;
#27000000
0!
03
04
0+
#27400000
1!
13
14
1+
1v!
16
05
18
07
1:
09
1;
#27500000
0!
03
04
0+
#27900000
1!
13
14
1+
1s!
0t!
0u!
0v!
1<
0;
0:
19
08
17
06
15
1>
0=
0<
1;
09
07
1@
0?
0>
1=
1A
0@
1?
0A
#28000000
0!
03
04
0+
#28400000
1!
13
14
1+
1v!
16
05
17
#28500000
0!
03
04
0+
#28900000
1!
13
14
1+
1u!
0v!
18
07
06
15
19
08
17
09
#29000000
0!
03
04
0+
#29400000
1!
13
14
1+
1v!
16
05
18
07
19
#29500000
0!
03
04
0+
#29900000
1!
13
14
1+
1t!
0u!
0v!
1:
09
08
17
06
15
1<
0;
0:
19
07
1>
0=
0<
1;
1@
0?
0>
1=
1A
0@
1?
0A
#30000000
0!
03
04
0+
#30400000
1!
13
14
1+
1v!
16
05
17
#30500000
0!
03
04
0+
#30900000
1!
13
14
1+
1u!
0v!
18
07
06
15
1:
09
08
17
1<
0;
0:
19
1>
0=
0<
1;
1@
0?
0>
1=
1A
0@
1?
0A
#31000000
0!
03
04
0+
#31400000
1!
13
14
1+
1v!
16
05
18
07
1:
09
1<
0;
1>
0=
1@
0?
1A
1t
#31500000
0!
03
04
0+
#31900000
1!
13
14
1+
1p!
0q!
0r!
0s!
0t!
0u!
0v!
1B
0A
0@
1?
0>
1=
0<
1;
0:
19
08
17
06
15
1C
0B
1A
0?
0=
0;
09
07
0t
0C
#32000000
0!
03
04
0+
#32400000
1!
13
14
1+
1v!
16
05
17
1t
0t
#32500000
0!
03
04
0+
#32900000
1!
13
14
1+
1u!
0v!
18
07
06
15
19
08
17
09
#33000000
0!
03
04
0+
#33400000
1!
13
14
1+
1v!
16
05
18
07
19
1t
0t
#33500000
0!
03
04
0+
#33900000
1!
13
14
1+
1t!
0u!
0v!
1:
09
08
17
06
15
1;
0:
19
07
0;
#34000000
0!
03
04
0+
#34400000
1!
13
14
1+
1v!
16
05
17
#34500000
0!
03
04
0+
#34900000
1!
13
14
1+
1u!
0v!
18
07
06
15
1:
09
08
17
1;
0:
19
0;
#35000000
0!
03
04
0+
#35400000
1!
13
14
1+
1v!
16
05
18
07
1:
09
1;
1t
0t
#35500000
0!
03
04
0+
#35900000
1!
13
14
1+
1s!
0t!
0u!
0v!
1<
0;
0:
19
08
17
06
15
1=
0<
1;
09
07
0=
#36000000
0!
03
04
0+
#36400000
1!
13
14
1+
1v!
16
05
17
#36500000
0!
03
04
0+
#36900000
1!
13
14
1+
1u!
0v!
18
07
06
15
19
08
17
09
#37000000
0!
03
04
0+
#37400000
1!
13
14
1+
1v!
16
05
18
07
19
#37500000
0!
03
04
0+
#37900000
1!
13
14
1+
1t!
0u!
0v!
1:
09
08
17
06
15
1<
0;
0:
19
07
1=
0<
1;
0=
#38000000
0!
03
04
0+
#38400000
1!
13
14
1+
1v!
16
05
17
#38500000
0!
03
04
0+
#38900000
1!
13
14
1+
1u!
0v!
18
07
06
15
1:
09
08
17
1<
0;
0:
19
1=
0<
1;
0=
#39000000
0!
03
04
0+
#39400000
1!
13
14
1+
1v!
16
05
18
07
1:
09
1<
0;
1=
1t
0t
#39500000
0!
03
04
0+
#39900000
1!
13
14
1+
1r!
0s!
0t!
0u!
0v!
1>
0=
0<
1;
0:
19
08
17
06
15
1?
0>
1=
0;
09
07
0?
#40000000
0!
03
04
0+
#40400000
1!
13
14
1+
1v!
16
05
17
#40500000
0!
03
04
0+
#40900000
1!
13
14
1+
1u!
0v!
18
07
06
15
19
08
17
09
#41000000
0!
03
04
0+
#41400000
1!
13
14
1+
1v!
16
05
18
07
19
#41500000
0!
03
04
0+
#41900000
1!
13
14
1+
1t!
0u!
0v!
1:
09
08
17
06
15
1;
0:
19
07
0;
#41920000
1$
1#
1"
1|
1$!
1*!
0+
1}
1%!
1+!
#42000000
0!
03
04
1+
#42240000
0$
0#
0"
0|
0$!
0*!
0+
0}
0%!
0+!
#42400000
1!
13
14
1+
1v!
16
05
17
#42500000
0!
03
04
0+
#42900000
1!
13
14
1+
1u!
0v!
18
07
06
15
1:
09
08
17
1;
0:
19
0;
#43000000
0!
03
04
0+
#43400000
1!
13
14
1+
1v!
16
05
18
07
1:
09
1;
#43500000
0!
03
04
0+
#43900000
1!
13
14
1+
1s!
0t!
0u!
0v!
1<
0;
0:
19
08
17
06
15
1>
0=
0<
1;
09
07
1?
0>
1=
0?
#44000000
0!
03
04
0+
#44400000
1!
13
14
1+
1v!
16
05
17
#44500000
0!
03
04
0+
#44900000
1!
13
14
1+
1u!
0v!
18
07
06
15
19
08
17
09
#45000000
0!
03
04
0+
#45400000
1!
13
14
1+
1v!
16
05
18
07
19
#45500000
0!
03
04
0+
#45900000
1!
13
14
1+
1t!
0u!
0v!
1:
09
08
17
06
15
1<
0;
0:
19
07
1>
0=
0<
1;
1?
0>
1=
0?
#46000000
0!
03
04
0+
#46400000
1!
13
14
1+
1v!
16
05
17
#46500000
0!
03
04
0+
#46900000
1!
13
14
1+
1u!
0v!
18
07
06
15
1:
09
08
17
1<
0;
0:
19
1>
0=
0<
1;
1?
0>
1=
0?
#47000000
0!
03
04
0+
#47400000
1!
13
14
1+
1v!
16
05
18
07
1:
09
1<
0;
1>
0=
1?
1t
0t
#47500000
0!
03
04
0+
#47900000
1!
13
14
1+
1q!
0r!
0s!
0t!
0u!
0v!
1@
0?
0>
1=
0<
1;
0:
19
08
17
06
15
1B
0A
0@
1?
0=
0;
09
07
1C
0B
1A
0C
#48000000
0!
03
04
0+
#48400000
1!
13
14
1+
1v!
16
05
17
#48500000
0!
03
04
0+
#48900000
1!
13
14
1+
1u!
0v!
18
07
06
15
19
08
17
09
#49000000
0!
03
04
0+
#49400000
1!
13
14
1+
1v!
16
05
18
07
19
#49500000
0!
03
04
0+
#49900000
1!
13
14
1+
1t!
0u!
0v!
1:
09
08
17
06
15
1;
0:
19
07
0;
